PCBNEW-LibModule-V1  pon, 24 mar 2014, 23:37:15
# encoding utf-8
$INDEX
batt-module_place
battmodbbb
$EndINDEX
$MODULE battmodbbb
Po 0 0 0 15 5330AA45 00000000 ~~
Li battmodbbb
Sc 00000000
AR battmodbbb
Op 0 0 0
T0 -787 -5118 600 600 0 120 N V 21 N "battmodbbb"
T1 3150 -5118 600 600 0 120 N V 21 N "VAL**"
DS -19291 -4331 19291 -4331 98 21
DS 19291 -4331 19291 4331 98 21
DS 19291 4331 -19291 4331 98 21
DS -19291 4331 -19291 -4331 98 21
DS -13598 3450 -13598 2400 150 21
DS -11598 2450 -11598 3450 150 21
DS -11598 2400 -11598 -3450 150 21
DS -13598 2400 -13598 -3450 150 21
DS -11598 3450 -13598 3450 150 21
DS -13598 -3450 -11598 -3450 150 21
$PAD
Sh "10" C 709 709 0 0 900
Dr 394 0 0
At STD N 00E0FFFF
Ne 0 ""
Po -12098 1750
$EndPAD
$PAD
Sh "9" C 709 709 0 0 900
Dr 394 0 0
At STD N 00E0FFFF
Ne 0 ""
Po -13098 1250
$EndPAD
$PAD
Sh "8" C 709 709 0 0 900
Dr 394 0 0
At STD N 00E0FFFF
Ne 0 ""
Po -12098 750
$EndPAD
$PAD
Sh "7" C 709 709 0 0 900
Dr 394 0 0
At STD N 00E0FFFF
Ne 0 ""
Po -13098 250
$EndPAD
$PAD
Sh "6" C 709 709 0 0 900
Dr 394 0 0
At STD N 00E0FFFF
Ne 0 ""
Po -12098 -250
$EndPAD
$PAD
Sh "5" C 709 709 0 0 900
Dr 394 0 0
At STD N 00E0FFFF
Ne 0 ""
Po -13098 -750
$EndPAD
$PAD
Sh "4" C 709 709 0 0 900
Dr 394 0 0
At STD N 00E0FFFF
Ne 0 ""
Po -12098 -1250
$EndPAD
$PAD
Sh "3" C 709 709 0 0 900
Dr 394 0 0
At STD N 00E0FFFF
Ne 0 ""
Po -13098 -1750
$EndPAD
$PAD
Sh "2" C 709 709 0 0 900
Dr 394 0 0
At STD N 00E0FFFF
Ne 0 ""
Po -12098 -2250
$EndPAD
$PAD
Sh "1" R 709 709 0 0 900
Dr 394 0 0
At STD N 00E0FFFF
Ne 0 ""
Po -13098 -2750
$EndPAD
$PAD
Sh "11" C 709 709 0 0 900
Dr 394 0 0
At STD N 00E0FFFF
Ne 0 ""
Po -13098 2250
$EndPAD
$PAD
Sh "12" C 709 709 0 0 900
Dr 394 0 0
At STD N 00E0FFFF
Ne 0 ""
Po -12098 2750
$EndPAD
$EndMODULE  battmodbbb
$MODULE batt-module_place
Po 0 0 0 15 5330B32F 00000000 ~~
Li batt-module_place
Sc 00000000
AR battmodbbb
Op 0 0 0
T0 0 787 600 600 0 120 N V 21 N "batt-module_place"
T1 0 -787 600 600 0 120 N V 21 N "VAL**"
DS -19291 -4331 19291 -4331 98 21
DS 19291 -4331 19291 4331 98 21
DS 19291 4331 -19291 4331 98 21
DS -19291 4331 -19291 -4331 98 21
DS -13598 3450 -13598 2400 150 21
DS -11598 2450 -11598 3450 150 21
DS -11598 2400 -11598 -3450 150 21
DS -13598 2400 -13598 -3450 150 21
DS -11598 3450 -13598 3450 150 21
DS -13598 -3450 -11598 -3450 150 21
DS 11955 -1000 6105 -1000 150 21
DS 11955 1000 6105 1000 150 21
DS 11955 -1000 11955 1000 150 21
DS 6105 1000 6105 -1000 150 21
$PAD
Sh "10" C 709 709 0 0 1800
Dr 394 0 0
At STD N 00E0FFFF
Ne 0 ""
Po 11305 -500
$EndPAD
$PAD
Sh "9" C 709 709 0 0 1800
Dr 394 0 0
At STD N 00E0FFFF
Ne 0 ""
Po 10805 500
$EndPAD
$PAD
Sh "8" C 709 709 0 0 1800
Dr 394 0 0
At STD N 00E0FFFF
Ne 0 ""
Po 10305 -500
$EndPAD
$PAD
Sh "7" C 709 709 0 0 1800
Dr 394 0 0
At STD N 00E0FFFF
Ne 0 ""
Po 9805 500
$EndPAD
$PAD
Sh "6" C 709 709 0 0 1800
Dr 394 0 0
At STD N 00E0FFFF
Ne 0 ""
Po 9305 -500
$EndPAD
$PAD
Sh "5" C 709 709 0 0 1800
Dr 394 0 0
At STD N 00E0FFFF
Ne 0 ""
Po 8805 500
$EndPAD
$PAD
Sh "4" C 709 709 0 0 1800
Dr 394 0 0
At STD N 00E0FFFF
Ne 0 ""
Po 8305 -500
$EndPAD
$PAD
Sh "3" C 709 709 0 0 1800
Dr 394 0 0
At STD N 00E0FFFF
Ne 0 ""
Po 7805 500
$EndPAD
$PAD
Sh "2" C 709 709 0 0 1800
Dr 394 0 0
At STD N 00E0FFFF
Ne 0 ""
Po 7305 -500
$EndPAD
$PAD
Sh "1" R 709 709 0 0 1800
Dr 394 0 0
At STD N 00E0FFFF
Ne 0 ""
Po 6805 500
$EndPAD
$PAD
Sh "G" C 709 709 0 0 900
Dr 394 0 0
At STD N 00E0FFFF
Ne 0 ""
Po -12098 1750
$EndPAD
$PAD
Sh "G" C 709 709 0 0 900
Dr 394 0 0
At STD N 00E0FFFF
Ne 0 ""
Po -13098 1250
$EndPAD
$PAD
Sh "G" C 709 709 0 0 900
Dr 394 0 0
At STD N 00E0FFFF
Ne 0 ""
Po -12098 750
$EndPAD
$PAD
Sh "G" C 709 709 0 0 900
Dr 394 0 0
At STD N 00E0FFFF
Ne 0 ""
Po -13098 250
$EndPAD
$PAD
Sh "G" C 709 709 0 0 900
Dr 394 0 0
At STD N 00E0FFFF
Ne 0 ""
Po -12098 -250
$EndPAD
$PAD
Sh "G" C 709 709 0 0 900
Dr 394 0 0
At STD N 00E0FFFF
Ne 0 ""
Po -13098 -750
$EndPAD
$PAD
Sh "M" C 709 709 0 0 900
Dr 394 0 0
At STD N 00E0FFFF
Ne 0 ""
Po -12098 -1250
$EndPAD
$PAD
Sh "M" C 709 709 0 0 900
Dr 394 0 0
At STD N 00E0FFFF
Ne 0 ""
Po -13098 -1750
$EndPAD
$PAD
Sh "M" C 709 709 0 0 900
Dr 394 0 0
At STD N 00E0FFFF
Ne 0 ""
Po -12098 -2250
$EndPAD
$PAD
Sh "M" R 709 709 0 0 900
Dr 394 0 0
At STD N 00E0FFFF
Ne 0 ""
Po -13098 -2750
$EndPAD
$PAD
Sh "W" C 709 709 0 0 900
Dr 394 0 0
At STD N 00E0FFFF
Ne 0 ""
Po -13098 2250
$EndPAD
$PAD
Sh "W" C 709 709 0 0 900
Dr 394 0 0
At STD N 00E0FFFF
Ne 0 ""
Po -12098 2750
$EndPAD
$EndMODULE  batt-module_place
$EndLIBRARY
