PCBNEW-LibModule-V1  czw, 13 mar 2014, 17:03:41
# encoding utf-8
$INDEX
DO5022H
MSD1260
$EndINDEX
$MODULE DO5022H
Po 0 0 0 15 5320291B 00000000 ~~
Li DO5022H
Kw INDUCTOR  COILCRAFT
Sc 00000000
AR DO5022H
Op 0 0 0
T0 100 900 600 600 0 120 N V 21 N "DO5022H"
T1 -100 -250 600 600 0 120 N V 21 N "VAL**"
DA 0 0 2000 2000 900 150 21
DA -50 0 -2000 -2000 900 150 21
DS 4400 1900 2050 1900 150 21
DS 4400 -1900 2050 -1900 150 21
DS -4400 1900 -2050 1900 150 21
DS -4400 -1900 -2050 -1900 150 21
DS -4400 1900 -4400 -1900 150 21
DS 4400 1900 4400 -1900 150 21
$PAD
Sh "1" R 1250 3400 0 0 0
Dr 0 0 0
At SMD N 00888000
Ne 0 ""
Po -3450 0
$EndPAD
$PAD
Sh "2" R 1250 3400 0 0 0
Dr 0 0 0
At SMD N 00888000
Ne 0 ""
Po 3450 0
$EndPAD
$EndMODULE  DO5022H
$MODULE MSD1260
Po 0 0 0 15 5321D6D2 00000000 ~~
Li MSD1260
Kw INDUCTOR  COILCRAFT
Sc 00000000
AR MSD1260
Op 0 0 0
T0 -3020 -180 600 600 900 120 N V 21 N "MSD1260"
T1 2980 -280 600 600 900 120 N V 21 N "VAL**"
DS -1270 -2430 -2470 -2430 39 21
DS -2470 -2430 -2470 2470 39 21
DS 80 -2430 -120 -2430 39 21
DS 1230 2470 2430 2470 39 21
DS 2430 2470 2430 -2430 39 21
DS 2430 -2430 1230 -2430 39 21
DS -120 2470 80 2470 39 21
DS -2470 2470 -1270 2470 39 21
$PAD
Sh "1" R 886 1969 0 0 0
Dr 0 0 0
At SMD N 00888000
Ne 0 ""
Po 670 -1890
$EndPAD
$PAD
Sh "2" R 886 1969 0 0 0
Dr 0 0 0
At SMD N 00888000
Ne 0 ""
Po -710 -1890
$EndPAD
$PAD
Sh "3" R 886 1969 0 0 0
Dr 0 0 0
At SMD N 00888000
Ne 0 ""
Po -709 1890
$EndPAD
$PAD
Sh "4" R 886 1969 0 0 0
Dr 0 0 0
At SMD N 00888000
Ne 0 ""
Po 670 1890
$EndPAD
$EndMODULE  MSD1260
$EndLIBRARY
