PCBNEW-LibModule-V1  nie, 22 mar 2015, 15:22:35
# encoding utf-8
Units mm
$INDEX
AK300-3
BARREL_JACK
IDC_MS_10x2
IDC_MS_5x2
IDC_MS_6x2
IDC_MS_7x2
IDC_T_5x2
IDC_T_7x2
MCV 1,5/10-GF-3,5
MCV10
MSTBVA_10
PINHEAD1-2_ALT
PQFN2x2
VASCH10x2_ALT
XY301V-B_2
XY301V-B_3
$EndINDEX
$MODULE AK300-3
Po 0 0 0 15 5374CF53 00000000 ~~
Li AK300-3
Cd CONNECTOR
Kw CONNECTOR
Sc 0
AR AK300-2
Op 0 0 0
At VIRTUAL
T0 -4.445 -6.985 1.778 1.778 0 0.0889 N V 21 N "P"
T1 0.254 7.747 1.778 1.778 0 0.0889 N V 21 N "VAL*"
DA -6.1976 -4.64566 -6.48462 -4.1275 1042 0.1524 21
DA -5.07746 -3.7084 -6.6802 -5.0038 1000 0.1524 21
DA -5.00126 -6.0706 -3.53822 -4.11734 755 0.1524 21
DA -4.0386 -4.59486 -3.5306 -5.05206 905 0.1524 21
DS -3.4036 -0.635 -1.7018 -0.635 0.1524 21
DS -6.7056 -0.635 -3.4036 -0.635 0.1524 21
DS -7.62 -0.635 -6.7056 -0.635 0.1524 21
DS -3.4036 -0.254 -6.7056 -0.254 0.1524 21
DS -3.0226 -0.254 -3.4036 -0.254 0.1524 21
DS -7.0866 -0.254 -6.7056 -0.254 0.1524 21
DS -6.5532 -4.318 -3.5052 -4.953 0.1524 21
DS -6.6802 -4.445 -3.62966 -5.08 0.1524 21
DS -3.0226 -5.969 -7.0866 -5.969 0.1524 21
DS -7.0866 -3.429 -7.0866 -5.969 0.1524 21
DS -3.0226 -3.429 -7.0866 -3.429 0.1524 21
DS -3.0226 -3.429 -3.0226 -5.969 0.1524 21
DS -7.62 -3.175 -7.62 -6.223 0.1524 21
DS -7.62 -3.175 2.54 -3.175 0.1524 21
DS -7.62 -0.635 -7.62 -3.175 0.1524 21
DS -7.62 6.223 -7.62 -0.635 0.1524 21
DS -3.4036 0.508 -3.7846 0.508 0.1524 21
DS -6.7056 0.508 -6.3246 0.508 0.1524 21
DS -6.7056 3.683 -6.7056 0.508 0.1524 21
DS -3.4036 3.683 -6.7056 3.683 0.1524 21
DS -3.4036 3.683 -3.4036 0.508 0.1524 21
DS -7.0866 4.318 -7.0866 6.223 0.1524 21
DS -3.0226 4.318 -3.0226 -0.254 0.1524 21
DS -3.0226 4.318 -7.0866 4.318 0.1524 21
DS -7.0866 6.223 -3.0226 6.223 0.1524 21
DS -7.62 6.223 -7.0866 6.223 0.1524 21
DS -7.0866 -0.254 -7.0866 4.318 0.1524 21
DS -3.0226 6.223 -2.0828 6.223 0.1524 21
DS -3.0226 6.223 -3.0226 4.318 0.1524 21
DS 2.54 -6.223 -7.62 -6.223 0.1524 21
DS -6.3246 2.54 -6.3246 -0.254 0.06604 21
DS -6.3246 -0.254 -3.7846 -0.254 0.06604 21
DS -3.7846 2.54 -3.7846 -0.254 0.06604 21
DS -6.3246 2.54 -3.7846 2.54 0.06604 21
DS -1.2446 2.54 1.2954 2.54 0.06604 21
DS 1.2954 2.54 1.2954 -0.254 0.06604 21
DS -1.2446 -0.254 1.2954 -0.254 0.06604 21
DS -1.2446 2.54 -1.2446 -0.254 0.06604 21
DS 3.7592 2.54 6.2992 2.54 0.06604 21
DS 6.2992 2.54 6.2992 -0.254 0.06604 21
DS 3.7592 -0.254 6.2992 -0.254 0.06604 21
DS 3.7592 2.54 3.7592 -0.254 0.06604 21
DS 7.62 -6.223 7.62 -3.175 0.1524 21
DS 7.62 -6.223 -2.54 -6.223 0.1524 21
DS 7.62 -6.223 8.128 -6.223 0.1524 21
DS 8.128 -6.223 8.128 -1.397 0.1524 21
DS 8.128 -1.397 7.62 -1.651 0.1524 21
DS 8.128 5.461 7.62 5.207 0.1524 21
DS 7.62 5.207 7.62 6.223 0.1524 21
DS 8.128 3.81 7.62 4.064 0.1524 21
DS 7.62 4.064 7.62 5.207 0.1524 21
DS 8.128 3.81 8.128 5.461 0.1524 21
DS 2.9972 6.223 2.9972 4.318 0.1524 21
DS 7.0612 -0.254 7.0612 4.318 0.1524 21
DS 2.9972 6.223 7.0612 6.223 0.1524 21
DS 7.0612 6.223 7.62 6.223 0.1524 21
DS 2.0574 6.223 2.0574 4.318 0.1524 21
DS 2.0574 6.223 2.9972 6.223 0.1524 21
DS -2.0066 -0.254 -2.0066 4.318 0.1524 21
DS -2.54 6.223 -2.0066 6.223 0.1524 21
DS -2.0066 6.223 2.0574 6.223 0.1524 21
DS 2.9972 4.318 7.0612 4.318 0.1524 21
DS 2.9972 4.318 2.9972 -0.254 0.1524 21
DS 7.0612 4.318 7.0612 6.223 0.1524 21
DS 2.0574 4.318 -2.0066 4.318 0.1524 21
DS 2.0574 4.318 2.0574 -0.254 0.1524 21
DS -2.0066 4.318 -2.0066 6.223 0.1524 21
DS 6.6802 3.683 6.6802 0.508 0.1524 21
DS 6.6802 3.683 3.3782 3.683 0.1524 21
DS 3.3782 3.683 3.3782 0.508 0.1524 21
DS 1.6764 3.683 1.6764 0.508 0.1524 21
DS 1.6764 3.683 -1.6256 3.683 0.1524 21
DS -1.6256 3.683 -1.6256 0.508 0.1524 21
DS -1.6256 0.508 -1.2446 0.508 0.1524 21
DS 1.6764 0.508 1.2954 0.508 0.1524 21
DS 3.3782 0.508 3.7592 0.508 0.1524 21
DS 6.6802 0.508 6.2992 0.508 0.1524 21
DS 7.62 -1.651 7.62 -0.635 0.1524 21
DS 7.62 -0.635 7.62 4.064 0.1524 21
DS -2.54 -3.175 7.62 -3.175 0.1524 21
DS 7.62 -3.175 7.62 -1.651 0.1524 21
DS 2.9972 -3.429 2.9972 -5.969 0.1524 21
DS 2.9972 -5.969 7.0612 -5.969 0.1524 21
DS 7.0612 -5.969 7.0612 -3.429 0.1524 21
DS 7.0612 -3.429 2.9972 -3.429 0.1524 21
DS 2.0574 -3.429 2.0574 -5.969 0.1524 21
DS 2.0574 -3.429 -2.0066 -3.429 0.1524 21
DS -2.0066 -3.429 -2.0066 -5.969 0.1524 21
DS 2.0574 -5.969 -2.0066 -5.969 0.1524 21
DS 3.4036 -4.445 6.4516 -5.08 0.1524 21
DS 3.5306 -4.318 6.5786 -4.953 0.1524 21
DS -1.6002 -4.445 1.45034 -5.08 0.1524 21
DS -1.4732 -4.318 1.5748 -4.953 0.1524 21
DS -2.0066 -0.254 -1.6256 -0.254 0.1524 21
DS 2.0574 -0.254 1.6764 -0.254 0.1524 21
DS 1.6764 -0.254 -1.6256 -0.254 0.1524 21
DS -2.54 -0.635 -1.6256 -0.635 0.1524 21
DS -1.6256 -0.635 1.6764 -0.635 0.1524 21
DS 1.6764 -0.635 3.3782 -0.635 0.1524 21
DS 7.62 -0.635 6.6802 -0.635 0.1524 21
DS 6.6802 -0.635 3.3782 -0.635 0.1524 21
DS 7.0612 -0.254 6.6802 -0.254 0.1524 21
DS 2.9972 -0.254 3.3782 -0.254 0.1524 21
DS 3.3782 -0.254 6.6802 -0.254 0.1524 21
DA 6.0452 -4.59486 6.55066 -5.05206 905 0.1524 21
DA 5.08 -6.0706 6.54304 -4.11734 755 0.1524 21
DA 5.00126 -3.7084 3.4036 -5.0038 1000 0.1524 21
DA 3.8862 -4.64566 3.59664 -4.1275 1042 0.1524 21
DA 1.0414 -4.59486 1.5494 -5.05206 905 0.1524 21
DA 0.07874 -6.0706 1.54178 -4.11734 755 0.1524 21
DA 0.00254 -3.7084 -1.6002 -5.0038 1000 0.1524 21
DA -1.1176 -4.64566 -1.40462 -4.1275 1042 0.1524 21
$PAD
Sh "1" O 1.9812 3.9624 0 0 0
Dr 1.3208 0 0
At STD N 00A8FFFF
Ne 0 ""
Po -5.0546 0
$EndPAD
$PAD
Sh "2" O 1.9812 3.9624 0 0 0
Dr 1.3208 0 0
At STD N 00A8FFFF
Ne 0 ""
Po 0.0254 0
$EndPAD
$PAD
Sh "3" O 1.9812 3.9624 0 0 0
Dr 1.3208 0 0
At STD N 00A8FFFF
Ne 0 ""
Po 5.0292 0
$EndPAD
$EndMODULE AK300-3
$MODULE BARREL_JACK
Po 0 0 0 15 538B19A1 00000000 ~~
Li BARREL_JACK
Cd module 1 pin (ou trou mecanique de percage)
Kw CONN JACK
Sc 0
AR JACK_ALIM
Op 0 0 0
T0 0.254 -5.588 1.016 1.016 0 0.254 N V 21 N "J1"
T1 -5.08 5.588 1.016 1.016 0 0.254 N V 21 N "JACK_2P"
DS -7.112 -4.318 -7.874 -4.318 0.381 21
DS -7.874 -4.318 -7.874 4.318 0.381 21
DS -7.874 4.318 -7.112 4.318 0.381 21
DS -4.064 -4.318 -4.064 4.318 0.381 21
DS 5.588 -4.318 5.588 4.318 0.381 21
DS -7.112 4.318 5.588 4.318 0.381 21
DS -7.112 -4.318 5.588 -4.318 0.381 21
$PAD
Sh "2" C 5.08 5.08 0 0 0
Dr 1.016 0 0 O 1.016 3.302
At STD N 00E0FFFF
Ne 0 ""
Po 0 0
$EndPAD
$PAD
Sh "1" R 4.8006 5.08 0 0 0
Dr 1.016 0 0 O 1.016 3.556
At STD N 00E0FFFF
Ne 0 ""
Po 6.096 0
$EndPAD
$PAD
Sh "3" O 5.08 3.302 0 0 0
Dr 3.302 0 0.254 O 3.302 1.016
At STD N 00E0FFFF
Ne 0 ""
Po 2.286 5.08
$EndPAD
$SHAPE3D
Na "connectors/POWER_21.wrl"
Sc 0.8 0.8 0.8
Of 0 0 0
Ro 0 0 0
$EndSHAPE3D
$EndMODULE BARREL_JACK
$MODULE IDC_MS_10x2
Po 0 0 0 15 550EB0AA 00000000 ~~
Li IDC_MS_10x2
Cd CONNECTOR
Kw CONNECTOR
Sc 0
AR /53153798
Op 0 0 0
At VIRTUAL
T0 -0.4064 -5.74294 1.778 1.778 0 0.0889 N V 21 N "P"
T1 0 6.35 1.778 1.778 0 0.0889 N V 21 N "VAL*"
DS 15.875 3.81 16.51 4.445 0.254 21
DS 15.875 -3.81 16.51 -4.445 0.254 21
DS -15.875 3.81 -16.51 4.445 0.254 21
DS -16.51 -4.445 -15.875 -3.81 0.254 21
DS -15.875 -3.81 -15.875 3.81 0.254 21
DS -15.875 3.81 -1.905 3.81 0.254 21
DS -1.905 3.81 -1.905 4.445 0.254 21
DS -15.875 -3.81 15.875 -3.81 0.254 21
DS 15.875 -3.81 15.875 3.81 0.254 21
DS 15.875 3.81 1.905 3.81 0.254 21
DS 1.905 3.81 1.905 4.445 0.254 21
DS 16.51 -4.445 -16.51 -4.445 0.254 21
DS -16.51 4.445 16.51 4.445 0.254 21
DS -16.51 -4.445 -16.51 4.445 0.254 21
DS 16.51 -4.445 16.51 4.445 0.254 21
DS -13.84808 1.9685 -13.14958 3.03784 0.254 21
DS -13.14958 3.03784 -12.44854 1.9685 0.254 21
DS -12.44854 1.9685 -13.84808 1.9685 0.254 21
$PAD
Sh "1" R 1.69926 1.69926 0 0 0
Dr 0.99822 0 0
At STD N 00FCFFFF
Ne 0 ""
Po -11.43 1.27
$EndPAD
$PAD
Sh "2" C 1.69926 1.69926 0 0 0
Dr 0.99822 0 0
At STD N 00FCFFFF
Ne 0 ""
Po -11.43 -1.27
$EndPAD
$PAD
Sh "3" C 1.69926 1.69926 0 0 0
Dr 0.99822 0 0
At STD N 00FCFFFF
Ne 0 ""
Po -8.89 1.27
$EndPAD
$PAD
Sh "4" C 1.69926 1.69926 0 0 0
Dr 0.99822 0 0
At STD N 00FCFFFF
Ne 0 ""
Po -8.89 -1.27
$EndPAD
$PAD
Sh "5" C 1.69926 1.69926 0 0 0
Dr 0.99822 0 0
At STD N 00FCFFFF
Ne 0 ""
Po -6.35 1.27
$EndPAD
$PAD
Sh "6" C 1.69926 1.69926 0 0 0
Dr 0.99822 0 0
At STD N 00FCFFFF
Ne 0 ""
Po -6.35 -1.27
$EndPAD
$PAD
Sh "7" C 1.69926 1.69926 0 0 0
Dr 0.99822 0 0
At STD N 00FCFFFF
Ne 0 ""
Po -3.81 1.27
$EndPAD
$PAD
Sh "8" C 1.69926 1.69926 0 0 0
Dr 0.99822 0 0
At STD N 00FCFFFF
Ne 0 ""
Po -3.81 -1.27
$EndPAD
$PAD
Sh "9" C 1.69926 1.69926 0 0 0
Dr 0.99822 0 0
At STD N 00FCFFFF
Ne 0 ""
Po -1.27 1.27
$EndPAD
$PAD
Sh "10" C 1.69926 1.69926 0 0 0
Dr 0.99822 0 0
At STD N 00FCFFFF
Ne 0 ""
Po -1.27 -1.27
$EndPAD
$PAD
Sh "11" C 1.69926 1.69926 0 0 0
Dr 0.99822 0 0
At STD N 00FCFFFF
Ne 0 ""
Po 1.27 1.27
$EndPAD
$PAD
Sh "12" C 1.69926 1.69926 0 0 0
Dr 0.99822 0 0
At STD N 00FCFFFF
Ne 0 ""
Po 1.27 -1.27
$EndPAD
$PAD
Sh "13" C 1.69926 1.69926 0 0 0
Dr 0.99822 0 0
At STD N 00FCFFFF
Ne 0 ""
Po 3.81 1.27
$EndPAD
$PAD
Sh "14" C 1.69926 1.69926 0 0 0
Dr 0.99822 0 0
At STD N 00FCFFFF
Ne 0 ""
Po 3.81 -1.27
$EndPAD
$PAD
Sh "15" C 1.69926 1.69926 0 0 0
Dr 0.99822 0 0
At STD N 00FCFFFF
Ne 0 ""
Po 6.35 1.27
$EndPAD
$PAD
Sh "16" C 1.69926 1.69926 0 0 0
Dr 0.99822 0 0
At STD N 00FCFFFF
Ne 0 ""
Po 6.35 -1.27
$EndPAD
$PAD
Sh "17" C 1.69926 1.69926 0 0 0
Dr 0.99822 0 0
At STD N 00FCFFFF
Ne 0 ""
Po 8.89 1.27
$EndPAD
$PAD
Sh "18" C 1.69926 1.69926 0 0 0
Dr 0.99822 0 0
At STD N 00FCFFFF
Ne 0 ""
Po 8.89 -1.27
$EndPAD
$PAD
Sh "19" C 1.69926 1.69926 0 0 0
Dr 0.99822 0 0
At STD N 00FCFFFF
Ne 0 ""
Po 11.43 1.27
$EndPAD
$PAD
Sh "20" C 1.69926 1.69926 0 0 0
Dr 0.99822 0 0
At STD N 00FCFFFF
Ne 0 ""
Po 11.43 -1.27
$EndPAD
$EndMODULE IDC_MS_10x2
$MODULE IDC_MS_5x2
Po 0 0 0 15 550EB057 00000000 ~~
Li IDC_MS_5x2
Cd CONNECTOR
Kw CONNECTOR
Sc 0
AR /53153798
Op 0 0 0
At VIRTUAL
T0 -0.4064 -5.74294 1.778 1.778 0 0.0889 N V 21 N "P"
T1 0 6.35 1.778 1.778 0 0.0889 N V 21 N "VAL*"
DS 1.905 3.81 9.525 3.81 0.254 21
DS -9.525 3.81 -1.905 3.81 0.254 21
DS 10.16 4.445 -10.16 4.445 0.254 21
DS -10.16 -4.445 10.16 -4.445 0.254 21
DS 9.525 -3.81 -9.525 -3.81 0.254 21
DS 9.525 3.81 10.16 4.445 0.254 21
DS 9.525 -3.81 10.16 -4.445 0.254 21
DS -9.525 3.81 -10.16 4.445 0.254 21
DS -10.16 -4.445 -9.525 -3.81 0.254 21
DS -9.525 -3.81 -9.525 3.81 0.254 21
DS -1.905 3.81 -1.905 4.445 0.254 21
DS 9.525 -3.81 9.525 3.81 0.254 21
DS 1.905 3.81 1.905 4.445 0.254 21
DS -10.16 -4.445 -10.16 4.445 0.254 21
DS 10.16 -4.445 10.16 4.445 0.254 21
DS -7.49808 1.9685 -6.79958 3.03784 0.254 21
DS -6.79958 3.03784 -6.09854 1.9685 0.254 21
DS -6.09854 1.9685 -7.49808 1.9685 0.254 21
$PAD
Sh "1" R 1.7 1.7 0 0 0
Dr 1 0 0
At STD N 00FCFFFF
Ne 0 ""
Po -5.08 1.27
$EndPAD
$PAD
Sh "2" C 1.7 1.7 0 0 0
Dr 1 0 0
At STD N 00FCFFFF
Ne 0 ""
Po -5.08 -1.27
$EndPAD
$PAD
Sh "3" C 1.7 1.7 0 0 0
Dr 1 0 0
At STD N 00FCFFFF
Ne 0 ""
Po -2.54 1.27
$EndPAD
$PAD
Sh "4" C 1.7 1.7 0 0 0
Dr 1 0 0
At STD N 00FCFFFF
Ne 0 ""
Po -2.54 -1.27
$EndPAD
$PAD
Sh "5" C 1.7 1.7 0 0 0
Dr 1 0 0
At STD N 00FCFFFF
Ne 0 ""
Po 0 1.27
$EndPAD
$PAD
Sh "6" C 1.7 1.7 0 0 0
Dr 1 0 0
At STD N 00FCFFFF
Ne 0 ""
Po 0 -1.27
$EndPAD
$PAD
Sh "7" C 1.7 1.7 0 0 0
Dr 1 0 0
At STD N 00FCFFFF
Ne 0 ""
Po 2.54 1.27
$EndPAD
$PAD
Sh "8" C 1.7 1.7 0 0 0
Dr 1 0 0
At STD N 00FCFFFF
Ne 0 ""
Po 2.54 -1.27
$EndPAD
$PAD
Sh "9" C 1.7 1.7 0 0 0
Dr 1 0 0
At STD N 00FCFFFF
Ne 0 ""
Po 5.08 1.27
$EndPAD
$PAD
Sh "10" C 1.7 1.7 0 0 0
Dr 1 0 0
At STD N 00FCFFFF
Ne 0 ""
Po 5.08 -1.27
$EndPAD
$EndMODULE IDC_MS_5x2
$MODULE IDC_MS_6x2
Po 0 0 0 15 550EB067 00000000 ~~
Li IDC_MS_6x2
Cd CONNECTOR
Kw CONNECTOR
Sc 0
AR /53153798
Op 0 0 0
At VIRTUAL
T0 -0.4064 -5.74294 1.778 1.778 0 0.0889 N V 21 N "P"
T1 0 6.35 1.778 1.778 0 0.0889 N V 21 N "VAL*"
DS 11.43 4.445 -11.43 4.445 0.254 21
DS 10.795 3.81 1.905 3.81 0.254 21
DS -1.905 3.81 -10.795 3.81 0.254 21
DS 11.43 -4.445 -11.43 -4.445 0.254 21
DS -10.795 -3.81 10.795 -3.81 0.254 21
DS 10.795 3.81 11.43 4.445 0.254 21
DS 10.795 -3.81 11.43 -4.445 0.254 21
DS -10.795 3.81 -11.43 4.445 0.254 21
DS -11.43 -4.445 -10.795 -3.81 0.254 21
DS -10.795 -3.81 -10.795 3.81 0.254 21
DS -1.905 3.81 -1.905 4.445 0.254 21
DS 10.795 -3.81 10.795 3.81 0.254 21
DS 1.905 3.81 1.905 4.445 0.254 21
DS -11.43 -4.445 -11.43 4.445 0.254 21
DS 11.43 -4.445 11.43 4.445 0.254 21
DS -8.76808 1.9685 -8.06958 3.03784 0.254 21
DS -8.06958 3.03784 -7.36854 1.9685 0.254 21
DS -7.36854 1.9685 -8.76808 1.9685 0.254 21
$PAD
Sh "1" R 1.7 1.7 0 0 0
Dr 1 0 0
At STD N 00FCFFFF
Ne 0 ""
Po -6.35 1.27
$EndPAD
$PAD
Sh "2" C 1.7 1.7 0 0 0
Dr 1 0 0
At STD N 00FCFFFF
Ne 0 ""
Po -6.35 -1.27
$EndPAD
$PAD
Sh "3" C 1.7 1.7 0 0 0
Dr 1 0 0
At STD N 00FCFFFF
Ne 0 ""
Po -3.81 1.27
$EndPAD
$PAD
Sh "4" C 1.7 1.7 0 0 0
Dr 1 0 0
At STD N 00FCFFFF
Ne 0 ""
Po -3.81 -1.27
$EndPAD
$PAD
Sh "5" C 1.7 1.7 0 0 0
Dr 1 0 0
At STD N 00FCFFFF
Ne 0 ""
Po -1.27 1.27
$EndPAD
$PAD
Sh "6" C 1.7 1.7 0 0 0
Dr 1 0 0
At STD N 00FCFFFF
Ne 0 ""
Po -1.27 -1.27
$EndPAD
$PAD
Sh "7" C 1.7 1.7 0 0 0
Dr 1 0 0
At STD N 00FCFFFF
Ne 0 ""
Po 1.27 1.27
$EndPAD
$PAD
Sh "8" C 1.7 1.7 0 0 0
Dr 1 0 0
At STD N 00FCFFFF
Ne 0 ""
Po 1.27 -1.27
$EndPAD
$PAD
Sh "9" C 1.7 1.7 0 0 0
Dr 1 0 0
At STD N 00FCFFFF
Ne 0 ""
Po 3.81 1.27
$EndPAD
$PAD
Sh "10" C 1.7 1.7 0 0 0
Dr 1 0 0
At STD N 00FCFFFF
Ne 0 ""
Po 3.81 -1.27
$EndPAD
$PAD
Sh "11" C 1.7 1.7 0 0 0
Dr 1 0 0
At STD N 00FCFFFF
Ne 0 ""
Po 6.35 1.27
$EndPAD
$PAD
Sh "12" C 1.7 1.7 0 0 0
Dr 1 0 0
At STD N 00FCFFFF
Ne 0 ""
Po 6.35 -1.27
$EndPAD
$EndMODULE IDC_MS_6x2
$MODULE IDC_MS_7x2
Po 0 0 0 15 550EB133 00000000 ~~
Li IDC_MS_7x2
Cd CONNECTOR
Kw CONNECTOR
Sc 0
AR /53153798
Op 0 0 0
At VIRTUAL
T0 -0.4064 -5.74294 1.778 1.778 0 0.0889 N V 21 N "P"
T1 0 6.35 1.778 1.778 0 0.0889 N V 21 N "VAL*"
DS -12.7 -4.445 12.7 -4.445 0.254 21
DS 12.065 -3.81 -12.065 -3.81 0.254 21
DS -12.7 4.445 12.7 4.445 0.254 21
DS -1.905 3.81 -12.065 3.81 0.254 21
DS 12.065 3.81 1.905 3.81 0.254 21
DS 12.065 3.81 12.7 4.445 0.254 21
DS 12.065 -3.81 12.7 -4.445 0.254 21
DS -12.065 3.81 -12.7 4.445 0.254 21
DS -12.7 -4.445 -12.065 -3.81 0.254 21
DS -12.065 -3.81 -12.065 3.81 0.254 21
DS -1.905 3.81 -1.905 4.445 0.254 21
DS 12.065 -3.81 12.065 3.81 0.254 21
DS 1.905 3.81 1.905 4.445 0.254 21
DS -12.7 -4.445 -12.7 4.445 0.254 21
DS 12.7 -4.445 12.7 4.445 0.254 21
DS -10.03808 1.9685 -9.33958 3.03784 0.254 21
DS -9.33958 3.03784 -8.63854 1.9685 0.254 21
DS -8.63854 1.9685 -10.03808 1.9685 0.254 21
$PAD
Sh "1" R 1.69926 1.69926 0 0 0
Dr 0.99822 0 0
At STD N 00FCFFFF
Ne 0 ""
Po -7.62 1.27
$EndPAD
$PAD
Sh "2" C 1.69926 1.69926 0 0 0
Dr 0.99822 0 0
At STD N 00FCFFFF
Ne 0 ""
Po -7.62 -1.27
$EndPAD
$PAD
Sh "3" C 1.69926 1.69926 0 0 0
Dr 0.99822 0 0
At STD N 00FCFFFF
Ne 0 ""
Po -5.08 1.27
$EndPAD
$PAD
Sh "4" C 1.69926 1.69926 0 0 0
Dr 0.99822 0 0
At STD N 00FCFFFF
Ne 0 ""
Po -5.08 -1.27
$EndPAD
$PAD
Sh "5" C 1.69926 1.69926 0 0 0
Dr 0.99822 0 0
At STD N 00FCFFFF
Ne 0 ""
Po -2.54 1.27
$EndPAD
$PAD
Sh "6" C 1.69926 1.69926 0 0 0
Dr 0.99822 0 0
At STD N 00FCFFFF
Ne 0 ""
Po -2.54 -1.27
$EndPAD
$PAD
Sh "7" C 1.69926 1.69926 0 0 0
Dr 0.99822 0 0
At STD N 00FCFFFF
Ne 0 ""
Po 0 1.27
$EndPAD
$PAD
Sh "8" C 1.69926 1.69926 0 0 0
Dr 0.99822 0 0
At STD N 00FCFFFF
Ne 0 ""
Po 0 -1.27
$EndPAD
$PAD
Sh "9" C 1.69926 1.69926 0 0 0
Dr 0.99822 0 0
At STD N 00FCFFFF
Ne 0 ""
Po 2.54 1.27
$EndPAD
$PAD
Sh "10" C 1.69926 1.69926 0 0 0
Dr 0.99822 0 0
At STD N 00FCFFFF
Ne 0 ""
Po 2.54 -1.27
$EndPAD
$PAD
Sh "11" C 1.69926 1.69926 0 0 0
Dr 0.99822 0 0
At STD N 00FCFFFF
Ne 0 ""
Po 5.08 1.27
$EndPAD
$PAD
Sh "12" C 1.69926 1.69926 0 0 0
Dr 0.99822 0 0
At STD N 00FCFFFF
Ne 0 ""
Po 5.08 -1.27
$EndPAD
$PAD
Sh "13" C 1.69926 1.69926 0 0 0
Dr 0.99822 0 0
At STD N 00FCFFFF
Ne 0 ""
Po 7.62 1.27
$EndPAD
$PAD
Sh "14" C 1.69926 1.69926 0 0 0
Dr 0.99822 0 0
At STD N 00FCFFFF
Ne 0 ""
Po 7.62 -1.27
$EndPAD
$EndMODULE IDC_MS_7x2
$MODULE IDC_T_5x2
Po 0 0 0 15 550ECEFF 00000000 ~~
Li IDC_T_5x2
Cd CONNECTOR
Kw CONNECTOR
Sc 0
AR /53153798
Op 0 0 0
At VIRTUAL
T0 0 -4.445 1.778 1.778 0 0.0889 N V 21 N "P"
T1 0 4.445 1.778 1.778 0 0.0889 N V 21 N "VAL*"
DS 8.89 3.048 8.89 -3.048 0.254 21
DS -8.89 3.048 -8.89 -3.048 0.254 21
DS 8.89 3.048 -8.89 3.048 0.254 21
DS -8.89 -3.048 8.89 -3.048 0.254 21
DS -7.49808 1.9685 -6.79958 3.03784 0.254 21
DS -6.79958 3.03784 -6.09854 1.9685 0.254 21
DS -6.09854 1.9685 -7.49808 1.9685 0.254 21
$PAD
Sh "1" R 1.7 1.7 0 0 0
Dr 1 0 0
At STD N 00FCFFFF
Ne 0 ""
Po -5.08 1.27
$EndPAD
$PAD
Sh "2" C 1.7 1.7 0 0 0
Dr 1 0 0
At STD N 00FCFFFF
Ne 0 ""
Po -5.08 -1.27
$EndPAD
$PAD
Sh "3" C 1.7 1.7 0 0 0
Dr 1 0 0
At STD N 00FCFFFF
Ne 0 ""
Po -2.54 1.27
$EndPAD
$PAD
Sh "4" C 1.7 1.7 0 0 0
Dr 1 0 0
At STD N 00FCFFFF
Ne 0 ""
Po -2.54 -1.27
$EndPAD
$PAD
Sh "5" C 1.7 1.7 0 0 0
Dr 1 0 0
At STD N 00FCFFFF
Ne 0 ""
Po 0 1.27
$EndPAD
$PAD
Sh "6" C 1.7 1.7 0 0 0
Dr 1 0 0
At STD N 00FCFFFF
Ne 0 ""
Po 0 -1.27
$EndPAD
$PAD
Sh "7" C 1.7 1.7 0 0 0
Dr 1 0 0
At STD N 00FCFFFF
Ne 0 ""
Po 2.54 1.27
$EndPAD
$PAD
Sh "8" C 1.7 1.7 0 0 0
Dr 1 0 0
At STD N 00FCFFFF
Ne 0 ""
Po 2.54 -1.27
$EndPAD
$PAD
Sh "9" C 1.7 1.7 0 0 0
Dr 1 0 0
At STD N 00FCFFFF
Ne 0 ""
Po 5.08 1.27
$EndPAD
$PAD
Sh "10" C 1.7 1.7 0 0 0
Dr 1 0 0
At STD N 00FCFFFF
Ne 0 ""
Po 5.08 -1.27
$EndPAD
$EndMODULE IDC_T_5x2
$MODULE IDC_T_7x2
Po 0 0 0 15 550ECFD0 00000000 ~~
Li IDC_T_7x2
Cd CONNECTOR
Kw CONNECTOR
Sc 0
AR /53153798
Op 0 0 0
At VIRTUAL
T0 0 -4.445 1.778 1.778 0 0.0889 N V 21 N "P"
T1 0 4.445 1.778 1.778 0 0.0889 N V 21 N "VAL*"
DS -11.43 3.048 11.43 3.048 0.254 21
DS -11.43 -3.048 11.43 -3.048 0.254 21
DS 11.43 3.048 11.43 -3.048 0.254 21
DS -11.43 3.048 -11.43 -3.048 0.254 21
DS -10.03808 1.9685 -9.33958 3.03784 0.254 21
DS -9.33958 3.03784 -8.63854 1.9685 0.254 21
DS -8.63854 1.9685 -10.03808 1.9685 0.254 21
$PAD
Sh "1" R 1.7 1.7 0 0 0
Dr 1 0 0
At STD N 00FCFFFF
Ne 0 ""
Po -7.62 1.27
$EndPAD
$PAD
Sh "2" C 1.7 1.7 0 0 0
Dr 1 0 0
At STD N 00FCFFFF
Ne 0 ""
Po -7.62 -1.27
$EndPAD
$PAD
Sh "3" C 1.7 1.7 0 0 0
Dr 1 0 0
At STD N 00FCFFFF
Ne 0 ""
Po -5.08 1.27
$EndPAD
$PAD
Sh "4" C 1.7 1.7 0 0 0
Dr 1 0 0
At STD N 00FCFFFF
Ne 0 ""
Po -5.08 -1.27
$EndPAD
$PAD
Sh "5" C 1.7 1.7 0 0 0
Dr 1 0 0
At STD N 00FCFFFF
Ne 0 ""
Po -2.54 1.27
$EndPAD
$PAD
Sh "6" C 1.7 1.7 0 0 0
Dr 1 0 0
At STD N 00FCFFFF
Ne 0 ""
Po -2.54 -1.27
$EndPAD
$PAD
Sh "7" C 1.7 1.7 0 0 0
Dr 1 0 0
At STD N 00FCFFFF
Ne 0 ""
Po 0 1.27
$EndPAD
$PAD
Sh "8" C 1.7 1.7 0 0 0
Dr 1 0 0
At STD N 00FCFFFF
Ne 0 ""
Po 0 -1.27
$EndPAD
$PAD
Sh "9" C 1.7 1.7 0 0 0
Dr 1 0 0
At STD N 00FCFFFF
Ne 0 ""
Po 7.62 2.54
$EndPAD
$PAD
Sh "10" C 1.7 1.7 0 0 0
Dr 1 0 0
At STD N 00FCFFFF
Ne 0 ""
Po 2.54 -1.27
$EndPAD
$PAD
Sh "11" C 1.69926 1.69926 0 0 0
Dr 0.99822 0 0
At STD N 00E0FFFF
Ne 0 ""
Po 5.08 1.27
$EndPAD
$PAD
Sh "12" C 1.69926 1.69926 0 0 0
Dr 0.99822 0 0
At STD N 00E0FFFF
Ne 0 ""
Po 5.08 -1.27
$EndPAD
$PAD
Sh "13" C 1.69926 1.69926 0 0 0
Dr 0.99822 0 0
At STD N 00E0FFFF
Ne 0 ""
Po 7.62 1.27
$EndPAD
$PAD
Sh "14" C 1.69926 1.69926 0 0 0
Dr 0.99822 0 0
At STD N 00E0FFFF
Ne 0 ""
Po 7.62 -1.27
$EndPAD
$EndMODULE IDC_T_7x2
$MODULE MCV 1,5/10-GF-3,5
Po 0 0 0 15 536A85D4 00000000 ~~
Li MCV 1,5/10-GF-3,5
Sc 0
AR 
Op 0 0 0
T0 -0.254 -8.382 1.524 1.524 0 0.3048 N V 21 N "MCV 1,5/10-GF-3,5"
T1 -0.254 -11.176 1.524 1.524 0 0.3048 N V 21 N "VAL**"
$PAD
Sh "5" C 2.4003 2.4003 0 0 0
Dr 1.19888 0 0
At STD N 00E0FFFF
Ne 0 ""
Po -1.75006 0
$EndPAD
$PAD
Sh "4" C 2.4003 2.4003 0 0 0
Dr 1.19888 0 0
At STD N 00E0FFFF
Ne 0 ""
Po -5.25018 0
$EndPAD
$PAD
Sh "3" C 2.4003 2.4003 0 0 0
Dr 1.19888 0 0
At STD N 00E0FFFF
Ne 0 ""
Po -8.7503 0
$EndPAD
$PAD
Sh "2" C 2.4003 2.4003 0 0 0
Dr 1.19888 0 0
At STD N 00E0FFFF
Ne 0 ""
Po -12.25042 0
$EndPAD
$PAD
Sh "1" C 2.4003 2.4003 0 0 0
Dr 1.19888 0 0
At STD N 00E0FFFF
Ne 0 ""
Po -15.75054 0
$EndPAD
$PAD
Sh "6" C 2.4003 2.4003 0 0 0
Dr 1.19888 0 0
At STD N 00E0FFFF
Ne 0 ""
Po 1.75006 0
$EndPAD
$PAD
Sh "7" C 2.4003 2.4003 0 0 0
Dr 1.19888 0 0
At STD N 00E0FFFF
Ne 0 ""
Po 5.25018 0
$EndPAD
$PAD
Sh "8" C 2.4003 2.4003 0 0 0
Dr 1.19888 0 0
At STD N 00E0FFFF
Ne 0 ""
Po 8.7503 0
$EndPAD
$PAD
Sh "9" C 2.4003 2.4003 0 0 0
Dr 1.19888 0 0
At STD N 00E0FFFF
Ne 0 ""
Po 12.25042 0
$EndPAD
$PAD
Sh "10" C 2.4003 2.4003 0 0 0
Dr 1.19888 0 0
At STD N 00E0FFFF
Ne 0 ""
Po 15.75054 0
$EndPAD
$EndMODULE MCV 1,5/10-GF-3,5
$MODULE MCV10
Po 0 0 0 15 53751699 00000000 ~~
Li MCV10
Sc 0
AR MCV10
Op 0 0 0
T0 -0.254 -8.382 1.524 1.524 0 0.3048 N V 21 N "MCV 1,5/10-GF-3,5"
T1 -0.254 -11.176 1.524 1.524 0 0.3048 N V 21 N "VAL**"
DS -22.64918 4.20116 -22.64918 4.8006 0.381 21
DS -22.64918 4.8006 22.64918 4.8006 0.381 21
DS 22.64918 4.8006 22.64918 4.24942 0.381 21
DS 22.64918 -2.99974 22.64918 4.24942 0.381 21
DS 22.64918 4.24942 -22.64918 4.24942 0.381 21
DS -22.64918 4.24942 -22.64918 -2.99974 0.381 21
DS -22.64918 -2.99974 22.64918 -2.99974 0.381 21
$PAD
Sh "5" C 2.4003 2.4003 0 0 0
Dr 1.19888 0 0
At STD N 00E0FFFF
Ne 0 ""
Po -1.75006 0
$EndPAD
$PAD
Sh "4" C 2.4003 2.4003 0 0 0
Dr 1.19888 0 0
At STD N 00E0FFFF
Ne 0 ""
Po -5.25018 0
$EndPAD
$PAD
Sh "3" C 2.4003 2.4003 0 0 0
Dr 1.19888 0 0
At STD N 00E0FFFF
Ne 0 ""
Po -8.7503 0
$EndPAD
$PAD
Sh "2" C 2.4003 2.4003 0 0 0
Dr 1.19888 0 0
At STD N 00E0FFFF
Ne 0 ""
Po -12.25042 0
$EndPAD
$PAD
Sh "1" R 2.4003 2.4003 0 0 0
Dr 1.19888 0 0
At STD N 00E0FFFF
Ne 0 ""
Po -15.75054 0
$EndPAD
$PAD
Sh "6" C 2.4003 2.4003 0 0 0
Dr 1.19888 0 0
At STD N 00E0FFFF
Ne 0 ""
Po 1.75006 0
$EndPAD
$PAD
Sh "7" C 2.4003 2.4003 0 0 0
Dr 1.19888 0 0
At STD N 00E0FFFF
Ne 0 ""
Po 5.25018 0
$EndPAD
$PAD
Sh "8" C 2.4003 2.4003 0 0 0
Dr 1.19888 0 0
At STD N 00E0FFFF
Ne 0 ""
Po 8.7503 0
$EndPAD
$PAD
Sh "9" C 2.4003 2.4003 0 0 0
Dr 1.19888 0 0
At STD N 00E0FFFF
Ne 0 ""
Po 12.25042 0
$EndPAD
$PAD
Sh "10" C 2.4003 2.4003 0 0 0
Dr 1.19888 0 0
At STD N 00E0FFFF
Ne 0 ""
Po 15.75054 0
$EndPAD
$PAD
Sh "" C 2.4003 2.4003 0 0 0
Dr 2.4003 0 0
At HOLE N 00E0FFFF
Ne 0 ""
Po -20.05076 0
$EndPAD
$PAD
Sh "" C 2.4003 2.4003 0 0 0
Dr 2.4003 0 0
At HOLE N 00E0FFFF
Ne 0 ""
Po 20.05076 0
$EndPAD
$EndMODULE MCV10
$MODULE MSTBVA_10
Po 0 0 0 15 5367DEA1 00000000 ~~
Li MSTBVA_10
Sc 0
AR MSTBVA
Op 0 0 0
T0 0 -9.144 1.524 1.524 0 0.3048 N V 21 N "MSTBVA 2,5/10-G-5,08"
T1 0 -6.604 1.524 1.524 0 0.3048 N V 21 N "VAL**"
DS -30.48 -4.826 -30.48 -11.43 0.381 21
DS -30.48 -11.43 30.48 -11.43 0.381 21
DS 30.48 -11.43 30.48 -4.826 0.381 21
DS -26.416 -4.826 -30.48 -4.826 0.381 21
DS -30.48 -4.826 -30.48 3.81 0.381 21
DS -30.48 3.81 -26.162 3.81 0.381 21
DS 26.416 -4.826 30.48 -4.826 0.381 21
DS 30.48 -4.826 30.48 3.81 0.381 21
DS 30.48 3.81 26.416 3.81 0.381 21
DS 26.416 3.81 26.416 -4.826 0.381 21
DS 26.416 -4.826 -26.416 -4.826 0.381 21
DS -26.416 -4.826 -26.416 3.81 0.381 21
DS -26.416 3.81 26.416 3.81 0.381 21
$PAD
Sh "5" C 2.99974 2.99974 0 0 0
Dr 1.39954 0 0
At STD N 00E0FFFF
Ne 0 ""
Po -2.54 0
$EndPAD
$PAD
Sh "6" C 2.99974 2.99974 0 0 0
Dr 1.39954 0 0
At STD N 00E0FFFF
Ne 0 ""
Po 2.54 0
$EndPAD
$PAD
Sh "7" C 2.99974 2.99974 0 0 0
Dr 1.39954 0 0
At STD N 00E0FFFF
Ne 0 ""
Po 7.62 0
$EndPAD
$PAD
Sh "8" C 2.99974 2.99974 0 0 0
Dr 1.39954 0 0
At STD N 00E0FFFF
Ne 0 ""
Po 12.7 0
$EndPAD
$PAD
Sh "9" C 2.99974 2.99974 0 0 0
Dr 1.39954 0 0
At STD N 00E0FFFF
Ne 0 ""
Po 17.78 0
$EndPAD
$PAD
Sh "10" C 2.99974 2.99974 0 0 0
Dr 1.39954 0 0
At STD N 00E0FFFF
Ne 0 ""
Po 22.86 0
$EndPAD
$PAD
Sh "4" C 2.99974 2.99974 0 0 0
Dr 1.39954 0 0
At STD N 00E0FFFF
Ne 0 ""
Po -7.62 0
$EndPAD
$PAD
Sh "1" C 2.99974 2.99974 0 0 0
Dr 1.39954 0 0
At STD N 00E0FFFF
Ne 0 ""
Po -22.86 0
$EndPAD
$PAD
Sh "2" C 2.99974 2.99974 0 0 0
Dr 1.39954 0 0
At STD N 00E0FFFF
Ne 0 ""
Po -17.78 0
$EndPAD
$PAD
Sh "3" C 2.99974 2.99974 0 0 0
Dr 1.39954 0 0
At STD N 00E0FFFF
Ne 0 ""
Po -12.7 0
$EndPAD
$PAD
Sh "" C 2.4003 2.4003 0 0 0
Dr 2.4003 0 0
At HOLE N 00E0FFFF
Ne 0 ""
Po 27.94 0
$EndPAD
$PAD
Sh "1" C 2.4003 2.4003 0 0 0
Dr 2.4003 0 0
At HOLE N 00E0FFFF
Ne 0 ""
Po -27.94 0
$EndPAD
$EndMODULE MSTBVA_10
$MODULE PINHEAD1-2_ALT
Po 0 0 0 15 538B2078 00000000 ~~
Li PINHEAD1-2_ALT
Sc 0
AR /52BE0D63/532F50D1
Op 0 0 0
At VIRTUAL
T0 3.2766 -0.4064 1.016 1.016 900 0.0889 N V 21 N "P401"
T1 4.5974 -0.9144 1.016 1.016 900 0.0889 N V 21 N "CONN_2"
DS 2.54 -1.27 -2.54 -1.27 0.254 21
DS 2.54 3.175 -2.54 3.175 0.254 21
DS -2.54 -3.175 2.54 -3.175 0.254 21
DS -2.54 -3.175 -2.54 3.175 0.254 21
DS 2.54 -3.175 2.54 3.175 0.254 21
$PAD
Sh "1" O 1.50622 3.01498 0 0 0
Dr 0.99822 0 0
At STD N 00FCFFFF
Ne 2 "GND"
Po -1.27 0
$EndPAD
$PAD
Sh "2" O 1.50622 3.01498 0 0 0
Dr 0.99822 0 0
At STD N 00FCFFFF
Ne 1 "/52BE0D63/52C1B311/Vmain"
Po 1.27 0
$EndPAD
$EndMODULE PINHEAD1-2_ALT
$MODULE PQFN2x2
Po 0 0 0 15 53204BE2 00000000 ~~
Li PQFN2x2
Cd PQFN 2x2 Outline Package
Sc 0
AR /52BE0D63/52C1E400/52C1DB6B
Op 0 0 0
.LocalClearance 0.09906
T0 -1.27 0 0.508 0.508 900 0.0508 N V 21 N "Q901"
T1 1.778 0 0.29972 0.29972 900 0.0508 N V 21 N "IRLHS6242"
DS -0.7366 1.0795 -0.7366 -1.0795 0.0508 21
DS -0.7366 -1.0795 1.3462 -1.0795 0.0508 21
DS 1.3462 -1.0795 1.3462 1.0795 0.0508 21
DS 1.27 1.0795 1.3462 1.0795 0.0508 21
DS -0.73152 1.0795 1.26746 1.0795 0.0508 21
$PAD
Sh "D" R 0.3556 0.3048 0 0 0
Dr 0 0 0
At SMD N 00888000
Ne 2 "N-000176"
Po -0.3556 0.8763
$EndPAD
$PAD
Sh "D" R 0.3556 0.3048 0 0 0
Dr 0 0 0
At SMD N 00888000
Ne 2 "N-000176"
Po 0.3048 0.8763
$EndPAD
$PAD
Sh "G" R 0.3556 0.3048 0 0 0
Dr 0 0 0
At SMD N 00888000
Ne 3 "N-000178"
Po 0.9652 0.8763
$EndPAD
$PAD
Sh "S" R 0.3556 0.3048 0 0 0
Dr 0 0 0
At SMD N 00888000
Ne 1 "GND"
Po 0.9652 -0.8763
$EndPAD
$PAD
Sh "D" R 0.3556 0.3048 0 0 0
Dr 0 0 0
At SMD N 00888000
Ne 2 "N-000176"
Po 0.3048 -0.8763
$EndPAD
$PAD
Sh "D" R 0.3556 0.3048 0 0 0
Dr 0 0 0
At SMD N 00888000
Ne 2 "N-000176"
Po -0.3556 -0.8763
$EndPAD
$PAD
Sh "D" R 1.04902 1.24968 0 0 0
Dr 0 0 0
At SMD N 00888000
Ne 2 "N-000176"
Po -0.00508 0
$EndPAD
$PAD
Sh "S" R 0.23114 0.78486 0 0 0
Dr 0 0 0
At SMD N 00888000
Ne 1 "GND"
Po 1.0287 0
$EndPAD
$EndMODULE PQFN2x2
$MODULE VASCH10x2_ALT
Po 0 0 0 15 550EB0AA 00000000 ~~
Li VASCH10x2_ALT
Cd CONNECTOR
Kw CONNECTOR
Sc 0
AR /53153798
Op 0 0 0
At VIRTUAL
T0 -0.4064 -5.74294 1.778 1.778 0 0.0889 N V 21 N "P"
T1 0 6.35 1.778 1.778 0 0.0889 N V 21 N "VAL*"
DS 15.875 3.81 16.51 4.445 0.254 21
DS 15.875 -3.81 16.51 -4.445 0.254 21
DS -15.875 3.81 -16.51 4.445 0.254 21
DS -16.51 -4.445 -15.875 -3.81 0.254 21
DS -15.875 -3.81 -15.875 3.81 0.254 21
DS -15.875 3.81 -1.905 3.81 0.254 21
DS -1.905 3.81 -1.905 4.445 0.254 21
DS -15.875 -3.81 15.875 -3.81 0.254 21
DS 15.875 -3.81 15.875 3.81 0.254 21
DS 15.875 3.81 1.905 3.81 0.254 21
DS 1.905 3.81 1.905 4.445 0.254 21
DS 16.51 -4.445 -16.51 -4.445 0.254 21
DS -16.51 4.445 16.51 4.445 0.254 21
DS -16.51 -4.445 -16.51 4.445 0.254 21
DS 16.51 -4.445 16.51 4.445 0.254 21
DS -13.84808 1.9685 -13.14958 3.03784 0.254 21
DS -13.14958 3.03784 -12.44854 1.9685 0.254 21
DS -12.44854 1.9685 -13.84808 1.9685 0.254 21
$PAD
Sh "1" R 1.69926 1.69926 0 0 0
Dr 0.99822 0 0
At STD N 00FCFFFF
Ne 0 ""
Po -11.43 1.27
$EndPAD
$PAD
Sh "2" C 1.69926 1.69926 0 0 0
Dr 0.99822 0 0
At STD N 00FCFFFF
Ne 0 ""
Po -11.43 -1.27
$EndPAD
$PAD
Sh "3" C 1.69926 1.69926 0 0 0
Dr 0.99822 0 0
At STD N 00FCFFFF
Ne 0 ""
Po -8.89 1.27
$EndPAD
$PAD
Sh "4" C 1.69926 1.69926 0 0 0
Dr 0.99822 0 0
At STD N 00FCFFFF
Ne 0 ""
Po -8.89 -1.27
$EndPAD
$PAD
Sh "5" C 1.69926 1.69926 0 0 0
Dr 0.99822 0 0
At STD N 00FCFFFF
Ne 0 ""
Po -6.35 1.27
$EndPAD
$PAD
Sh "6" C 1.69926 1.69926 0 0 0
Dr 0.99822 0 0
At STD N 00FCFFFF
Ne 0 ""
Po -6.35 -1.27
$EndPAD
$PAD
Sh "7" C 1.69926 1.69926 0 0 0
Dr 0.99822 0 0
At STD N 00FCFFFF
Ne 0 ""
Po -3.81 1.27
$EndPAD
$PAD
Sh "8" C 1.69926 1.69926 0 0 0
Dr 0.99822 0 0
At STD N 00FCFFFF
Ne 0 ""
Po -3.81 -1.27
$EndPAD
$PAD
Sh "9" C 1.69926 1.69926 0 0 0
Dr 0.99822 0 0
At STD N 00FCFFFF
Ne 0 ""
Po -1.27 1.27
$EndPAD
$PAD
Sh "10" C 1.69926 1.69926 0 0 0
Dr 0.99822 0 0
At STD N 00FCFFFF
Ne 0 ""
Po -1.27 -1.27
$EndPAD
$PAD
Sh "11" C 1.69926 1.69926 0 0 0
Dr 0.99822 0 0
At STD N 00FCFFFF
Ne 0 ""
Po 1.27 1.27
$EndPAD
$PAD
Sh "12" C 1.69926 1.69926 0 0 0
Dr 0.99822 0 0
At STD N 00FCFFFF
Ne 0 ""
Po 1.27 -1.27
$EndPAD
$PAD
Sh "13" C 1.69926 1.69926 0 0 0
Dr 0.99822 0 0
At STD N 00FCFFFF
Ne 0 ""
Po 3.81 1.27
$EndPAD
$PAD
Sh "14" C 1.69926 1.69926 0 0 0
Dr 0.99822 0 0
At STD N 00FCFFFF
Ne 0 ""
Po 3.81 -1.27
$EndPAD
$PAD
Sh "15" C 1.69926 1.69926 0 0 0
Dr 0.99822 0 0
At STD N 00FCFFFF
Ne 0 ""
Po 6.35 1.27
$EndPAD
$PAD
Sh "16" C 1.69926 1.69926 0 0 0
Dr 0.99822 0 0
At STD N 00FCFFFF
Ne 0 ""
Po 6.35 -1.27
$EndPAD
$PAD
Sh "17" C 1.69926 1.69926 0 0 0
Dr 0.99822 0 0
At STD N 00FCFFFF
Ne 0 ""
Po 8.89 1.27
$EndPAD
$PAD
Sh "18" C 1.69926 1.69926 0 0 0
Dr 0.99822 0 0
At STD N 00FCFFFF
Ne 0 ""
Po 8.89 -1.27
$EndPAD
$PAD
Sh "19" C 1.69926 1.69926 0 0 0
Dr 0.99822 0 0
At STD N 00FCFFFF
Ne 0 ""
Po 11.43 1.27
$EndPAD
$PAD
Sh "20" C 1.69926 1.69926 0 0 0
Dr 0.99822 0 0
At STD N 00FCFFFF
Ne 0 ""
Po 11.43 -1.27
$EndPAD
$EndMODULE VASCH10x2_ALT
$MODULE XY301V-B_2
Po 0 0 0 15 5375092F 00000000 ~~
Li XY301V-B_2
Cd CONNECTOR
Kw CONNECTOR
Sc 0
AR AK300-2
Op 0 0 0
At VIRTUAL
T0 0 -4.826 1.778 1.778 0 0.0889 N V 21 N "P"
T1 0 5.588 1.778 1.778 0 0.0889 N V 21 N "VAL*"
DS 5.08 -2.54 -5.08 -2.54 0.127 21
DS 2.794 2.54 5.08 2.54 0.127 21
DS -5.08 -3.81 5.08 -3.81 0.127 21
DS -5.08 3.81 5.08 3.81 0.127 21
DS 0.762 -3.81 0.762 3.302 0.127 21
DS 0.762 3.302 4.318 3.302 0.127 21
DS 4.318 3.302 4.318 -3.81 0.127 21
DS -0.762 -3.81 -0.762 3.302 0.127 21
DS -0.762 3.302 -4.318 3.302 0.127 21
DS -4.318 3.302 -4.318 -3.81 0.127 21
DS -4.826 2.54 -2.794 2.54 0.127 21
DS -5.08 2.286 -4.826 2.032 0.127 21
DS -4.826 2.032 -4.826 3.048 0.127 21
DS -4.826 3.048 -5.08 2.794 0.127 21
DS 5.08 2.286 5.334 2.032 0.127 21
DS 5.334 2.032 5.334 3.048 0.127 21
DS 5.334 3.048 5.08 2.794 0.127 21
DS 2.286 2.54 -2.286 2.54 0.127 21
DC 2.54 2.794 2.794 3.048 0.127 21
DC -2.54 2.794 -2.286 3.048 0.127 21
DS -0.254 -2.032 0.254 -2.032 0.127 21
DS 0.254 -2.032 0.254 2.032 0.127 21
DS 0.254 2.032 -0.254 2.032 0.127 21
DS -0.254 2.032 -0.254 -2.032 0.127 21
DS 5.08 -3.81 5.08 3.81 0.127 21
DS -5.08 3.81 -5.08 -3.81 0.127 21
$PAD
Sh "2" O 1.9812 3.9624 0 0 0
Dr 1.3208 0 0
At STD N 00A8FFFF
Ne 0 ""
Po -2.54 0
$EndPAD
$PAD
Sh "1" O 1.9812 3.9624 0 0 0
Dr 1.3208 0 0
At STD N 00A8FFFF
Ne 0 ""
Po 2.5654 0
$EndPAD
$EndMODULE XY301V-B_2
$MODULE XY301V-B_3
Po 0 0 0 15 53750922 00000000 ~~
Li XY301V-B_3
Cd CONNECTOR
Kw CONNECTOR
Sc 0
AR AK300-2
Op 0 0 0
At VIRTUAL
T0 0 -4.826 1.778 1.778 0 0.0889 N V 21 N "P"
T1 0 5.588 1.778 1.778 0 0.0889 N V 21 N "VAL*"
DS 3.302 -3.81 3.302 3.302 0.127 21
DS 3.302 3.302 6.858 3.302 0.127 21
DS 6.858 3.302 6.858 -3.81 0.127 21
DS -1.778 -3.81 -1.778 3.302 0.127 21
DS -1.778 3.302 1.778 3.302 0.127 21
DS 1.778 3.302 1.778 -3.81 0.127 21
DS -3.302 -3.81 -3.302 3.302 0.127 21
DS -3.302 3.302 -6.858 3.302 0.127 21
DS -6.858 3.302 -6.858 -3.81 0.127 21
DS -7.366 2.54 -5.334 2.54 0.127 21
DS -7.62 2.286 -7.366 2.032 0.127 21
DS -7.366 2.032 -7.366 3.048 0.127 21
DS -7.366 3.048 -7.62 2.794 0.127 21
DS 7.62 2.286 7.874 2.032 0.127 21
DS 7.874 2.032 7.874 3.048 0.127 21
DS 7.874 3.048 7.62 2.794 0.127 21
DS -0.254 2.54 -4.826 2.54 0.127 21
DS 4.826 2.54 0.254 2.54 0.127 21
DS 7.62 2.54 5.334 2.54 0.127 21
DC 5.08 2.794 5.334 3.048 0.127 21
DC 0 2.794 0.254 3.048 0.127 21
DC -5.08 2.794 -4.826 3.048 0.127 21
DS 2.286 2.032 2.286 -2.032 0.127 21
DS 2.794 2.032 2.286 2.032 0.127 21
DS 2.794 -2.032 2.794 2.032 0.127 21
DS 2.286 -2.032 2.794 -2.032 0.127 21
DS -2.794 -2.032 -2.286 -2.032 0.127 21
DS -2.286 -2.032 -2.286 2.032 0.127 21
DS -2.286 2.032 -2.794 2.032 0.127 21
DS -2.794 2.032 -2.794 -2.032 0.127 21
DS -7.62 -2.54 7.62 -2.54 0.127 21
DS -7.62 -3.81 7.62 -3.81 0.127 21
DS 7.62 -3.81 7.62 3.81 0.127 21
DS 7.62 3.81 -7.62 3.81 0.127 21
DS -7.62 3.81 -7.62 -3.81 0.127 21
$PAD
Sh "3" O 1.9812 3.9624 0 0 0
Dr 1.3208 0 0
At STD N 00A8FFFF
Ne 0 ""
Po -5.08 0
$EndPAD
$PAD
Sh "2" O 1.9812 3.9624 0 0 0
Dr 1.3208 0 0
At STD N 00A8FFFF
Ne 0 ""
Po 0.0254 0
$EndPAD
$PAD
Sh "1" O 1.9812 3.9624 0 0 0
Dr 1.3208 0 0
At STD N 00A8FFFF
Ne 0 ""
Po 5.08 0
$EndPAD
$EndMODULE XY301V-B_3
$EndLIBRARY
