PCBNEW-LibModule-V1  sob, 6 wrz 2014, 23:48:24
# encoding utf-8
Units mm
$INDEX
DDB8
$EndINDEX
$MODULE DDB8
Po 0 0 0 15 540B8123 00000000 ~~
Li DDB8
Sc 0
AR DDB
Op 0 0 0
T0 -1.99898 0 0.59944 0.59944 900 0.09906 N V 21 N "DDB8"
T1 2.49936 0 0.59944 0.59944 900 0.10414 N V 21 N "VAL**"
DS -1 1 -1.5 0.6 0.09906 21
DS 1.50114 -1.00076 1.00076 -1.00076 0.09906 21
DS 1.50114 1.00076 1.00076 1.00076 0.09906 21
DS 1.50114 -1.00076 1.50114 1.00076 0.09906 21
DS -1.50114 1.00076 -1.00076 1.00076 0.09906 21
DS -1.50114 -1.00076 -1.00076 -1.00076 0.09906 21
DS -1.50114 1.00076 -1.50114 -1.00076 0.09906 21
$PAD
Sh "2" R 0.24892 0.70104 0 0 0
Dr 0 0 0
At SMD N 00888000
Ne 0 ""
Po -0.24892 0.92456
$EndPAD
$PAD
Sh "3" R 0.24892 0.70104 0 0 0
Dr 0 0 0
At SMD N 00888000
Ne 0 ""
Po 0.24892 0.92456
$EndPAD
$PAD
Sh "4" R 0.24892 0.70104 0 0 0
Dr 0 0 0
At SMD N 00888000
Ne 0 ""
Po 0.7493 0.92456
$EndPAD
$PAD
Sh "5" R 0.24892 0.70104 0 0 0
Dr 0 0 0
At SMD N 00888000
Ne 0 ""
Po 0.7493 -0.92456
$EndPAD
$PAD
Sh "6" R 0.24892 0.70104 0 0 0
Dr 0 0 0
At SMD N 00888000
Ne 0 ""
Po 0.24892 -0.92456
$EndPAD
$PAD
Sh "7" R 0.24892 0.70104 0 0 0
Dr 0 0 0
At SMD N 00888000
Ne 0 ""
Po -0.24892 -0.92456
$EndPAD
$PAD
Sh "8" R 0.24892 0.70104 0 0 0
Dr 0 0 0
At SMD N 00888000
Ne 0 ""
Po -0.7493 -0.92456
$EndPAD
$PAD
Sh "1" R 0.24892 0.70104 0 0 0
Dr 0 0 0
At SMD N 00888000
Ne 0 ""
Po -0.7493 0.92456
$EndPAD
$PAD
Sh "9" R 2.19964 0.6096 0 0 0
Dr 0 0 0
At SMD N 00888000
Ne 0 ""
Po 0 0
$EndPAD
$EndMODULE DDB8
$EndLIBRARY
