PCBNEW-LibModule-V1  czw, 19 mar 2015, 12:02:42
# encoding utf-8
Units mm
$INDEX
DE1207
DLJ40XX
$EndINDEX
$MODULE DE1207
Po 0 0 0 15 5321D693 00000000 ~~
Li DE1207
Sc 0
AR DE1207
Op 0 0 0
T0 0 7.50062 1.19888 1.19888 0 0.25146 N V 21 N "DE1207"
T1 0 -7.50062 1.524 1.524 0 0.3048 N V 21 N "VAL**"
DS 5.99948 5.99948 5.99948 3.50012 0.381 21
DS 5.99948 -5.99948 5.99948 -3.50012 0.381 21
DS -5.99948 -5.99948 -5.99948 -3.50012 0.381 21
DS -5.99948 5.99948 -5.99948 3.50012 0.381 21
DS 5.99948 -5.99948 -5.99948 -5.99948 0.381 21
DS -5.99948 5.99948 5.99948 5.99948 0.381 21
$PAD
Sh "1" R 4.30022 5.40004 0 0 0
Dr 0 0 0
At SMD N 00888000
Ne 0 ""
Po -5.6007 0
$EndPAD
$PAD
Sh "2" R 4.30022 5.40004 0 0 0
Dr 0 0 0
At SMD N 00888000
Ne 0 ""
Po 5.6007 0
$EndPAD
$EndMODULE DE1207
$MODULE DLJ40XX
Po 0 0 0 15 550AACCD 00000000 ~~
Li DLJ40XX
Sc 0
AR 
Op 0 0 0
T0 0 -2.8 1 1 0 0.15 N V 21 N "DLJ40XX"
T1 0 2.9 1 1 0 0.15 N V 21 N "VAL**"
DS -2 -1.2 -2 -2 0.15 21
DS 2 1.2 2 2 0.15 21
DS 2 2 -2 2 0.15 21
DS -2 2 -2 1.2 0.15 21
DS -2 -2 2 -2 0.15 21
DS 2 -2 2 -1.2 0.15 21
$PAD
Sh "1" R 1.2 2 0 0 0
Dr 0 0 0
At SMD N 00888000
Ne 0 ""
Po -1.6 0
$EndPAD
$PAD
Sh "2" R 1.2 2 0 0 0
Dr 0 0 0
At SMD N 00888000
Ne 0 ""
Po 1.6 0
$EndPAD
$EndMODULE DLJ40XX
$EndLIBRARY
