PCBNEW-LibModule-V1  wto, 27 sty 2015, 15:35:28
# encoding utf-8
Units mm
$INDEX
DEHF180
$EndINDEX
$MODULE DEHF180
Po 0 0 0 15 54C79E93 00000000 ~~
Li DEHF180
Kw INDUCTOR, FERYSTER
Sc 0
AR 
Op 0 0 0
T0 0 0 2 2 900 0.15 N V 21 N "D-EHF42/0.012/180"
T1 0 23.9 2 2 0 0.15 N V 21 N "VAL**"
DS 22 -22 22 22 0.15 21
DS 22 22 -22 22 0.15 21
DS -22 22 -22 -18 0.15 21
DS -22 -18 -18 -22 0.15 21
DS -18 -22 22 -22 0.15 21
$PAD
Sh "1" R 10 15 0 0 0
Dr 4.7 0 0 O 4.7 8.6
At STD N 00E0FFFF
Ne 0 ""
Po -13.6 -9.5
$EndPAD
$PAD
Sh "2" O 10 15 0 0 0
Dr 4.7 0 0 O 4.7 8.6
At STD N 00E0FFFF
Ne 0 ""
Po 13.6 9.5
$EndPAD
$EndMODULE DEHF180
$EndLIBRARY
