PCBNEW-LibModule-V1  czw, 20 mar 2014, 20:41:14
# encoding utf-8
$INDEX
KEYS1043
$EndINDEX
$MODULE KEYS1043
Po 0 0 0 15 532B4427 00000000 ~~
Li KEYS1043
Kw KEYSTONE MR18650
Sc 00000000
AR KEYS1043
Op 0 0 0
T0 0 -787 600 600 0 120 N V 21 N "KEYS1043"
T1 0 787 600 600 0 120 N V 21 N "VAL**"
DS 15354 -4331 15354 4331 197 21
DS 15354 4331 -15354 4331 197 21
DS -15354 4331 -15354 -4331 197 21
DS -15354 -4331 15354 -4331 197 21
$PAD
Sh "-" O 1181 1969 0 0 0
Dr 512 0 0
At STD N 00E0FFFF
Ne 0 ""
Po -14114 0
$EndPAD
$PAD
Sh "+" R 1181 1969 0 0 0
Dr 512 0 0
At STD N 00E0FFFF
Ne 0 ""
Po 14114 0
$EndPAD
$PAD
Sh "" C 1417 1417 0 0 0
Dr 1417 0 0
At HOLE N 00E0FFFF
Ne 0 ""
Po 10827 -3150
$EndPAD
$PAD
Sh "" C 1417 1417 0 0 0
Dr 1417 0 0
At HOLE N 00E0FFFF
Ne 0 ""
Po -10827 3150
$EndPAD
$PAD
Sh "" C 984 984 0 0 0
Dr 984 0 0
At HOLE N 00E0FFFF
Ne 0 ""
Po 14102 3150
$EndPAD
$EndMODULE  KEYS1043
$EndLIBRARY
