PCBNEW-LibModule-V1  śro, 3 gru 2014, 14:25:32
# encoding utf-8
Units mm
$INDEX
CODING_SWITCH
CODING_SWITCH_ALT
RV_CA9V
SM2920
littelfuse_451_453
mx67329
$EndINDEX
$MODULE CODING_SWITCH
Po 0 0 0 15 53727897 00000000 ~~
Li CODING_SWITCH
Sc 0
AR 
Op 0 0 0
T0 0 -5.99948 1.016 1.016 0 0.254 N V 21 N "CODING_SWITCH"
T1 0 0 1.016 1.016 0 0.254 N I 21 N "VAL**"
DS -5.00126 -5.00126 5.00126 -5.00126 0.381 21
DS 5.00126 -5.00126 5.00126 5.00126 0.381 21
DS 5.00126 5.00126 -5.00126 5.00126 0.381 21
DS -5.00126 5.00126 -5.00126 -5.00126 0.381 21
$PAD
Sh "1" C 1.80086 1.80086 0 0 0
Dr 0.89916 0 0
At STD N 00E0FFFF
Ne 0 ""
Po 0 -3.81
$EndPAD
$PAD
Sh "1" C 1.80086 1.80086 0 0 0
Dr 0.89916 0 0
At STD N 00E0FFFF
Ne 0 ""
Po 0 3.81
$EndPAD
$PAD
Sh "3" C 1.80086 1.80086 0 0 0
Dr 0.89916 0 0
At STD N 00E0FFFF
Ne 0 ""
Po 2.54 -3.81
$EndPAD
$PAD
Sh "5" C 1.80086 1.80086 0 0 0
Dr 0.89916 0 0
At STD N 00E0FFFF
Ne 0 ""
Po -2.54 -3.81
$EndPAD
$PAD
Sh "4" C 1.80086 1.80086 0 0 0
Dr 0.89916 0 0
At STD N 00E0FFFF
Ne 0 ""
Po 2.54 3.81
$EndPAD
$PAD
Sh "2" C 1.80086 1.80086 0 0 0
Dr 0.89916 0 0
At STD N 00E0FFFF
Ne 0 ""
Po -2.54 3.81
$EndPAD
$EndMODULE CODING_SWITCH
$MODULE CODING_SWITCH_ALT
Po 0 0 0 15 537278C7 00000000 ~~
Li CODING_SWITCH_ALT
Sc 0
AR 
Op 0 0 0
T0 0 -5.99948 1.016 1.016 0 0.254 N V 21 N "CODING_SWITCH_ALT"
T1 0 0 1.016 1.016 0 0.254 N I 21 N "VAL**"
DS -5.00126 -5.00126 5.00126 -5.00126 0.381 21
DS 5.00126 -5.00126 5.00126 5.00126 0.381 21
DS 5.00126 5.00126 -5.00126 5.00126 0.381 21
DS -5.00126 5.00126 -5.00126 -5.00126 0.381 21
$PAD
Sh "C" C 1.80086 1.80086 0 0 0
Dr 0.89916 0 0
At STD N 00E0FFFF
Ne 0 ""
Po 0 -3.81
$EndPAD
$PAD
Sh "C" C 1.80086 1.80086 0 0 0
Dr 0.89916 0 0
At STD N 00E0FFFF
Ne 0 ""
Po 0 3.81
$EndPAD
$PAD
Sh "2" C 1.80086 1.80086 0 0 0
Dr 0.89916 0 0
At STD N 00E0FFFF
Ne 0 ""
Po 2.54 -3.81
$EndPAD
$PAD
Sh "8" C 1.80086 1.80086 0 0 0
Dr 0.89916 0 0
At STD N 00E0FFFF
Ne 0 ""
Po -2.54 -3.81
$EndPAD
$PAD
Sh "4" C 1.80086 1.80086 0 0 0
Dr 0.89916 0 0
At STD N 00E0FFFF
Ne 0 ""
Po 2.54 3.81
$EndPAD
$PAD
Sh "1" C 1.80086 1.80086 0 0 0
Dr 0.89916 0 0
At STD N 00E0FFFF
Ne 0 ""
Po -2.54 3.81
$EndPAD
$EndMODULE CODING_SWITCH_ALT
$MODULE RV_CA9V
Po 0 0 0 15 547F0F2D 00000000 ~~
Li RV_CA9V
Sc 0
AR 
Op 0 0 0
T0 0 0 1 1 0 0.15 N V 21 N "RV_CA9V"
T1 0 0 1 1 0 0.15 N V 21 N "VAL**"
DS -4.2 5 -5 5 0.15 21
DS -5 5 -5 -5 0.15 21
DS 0.8 5 -0.8 5 0.15 21
DS 1.7 -5 5 -5 0.15 21
DS 5 -5 5 5 0.15 21
DS 5 5 4.2 5 0.15 21
DS -5 -5 -1.7 -5 0.15 21
$PAD
Sh "2" C 2.6 2.6 0 0 0
Dr 1.3 0 0
At STD N 00E0FFFF
Ne 0 ""
Po 0 -5
$EndPAD
$PAD
Sh "1" C 2.6 2.6 0 0 0
Dr 1.3 0 0
At STD N 00E0FFFF
Ne 0 ""
Po -2.5 5
$EndPAD
$PAD
Sh "3" C 2.6 2.6 0 0 0
Dr 1.3 0 0
At STD N 00E0FFFF
Ne 0 ""
Po 2.5 5
$EndPAD
$PAD
Sh "" C 4 4 0 0 0
Dr 4 0 0
At HOLE N 00E0FFFF
Ne 0 ""
Po -0.1 0
$EndPAD
$EndMODULE RV_CA9V
$MODULE SM2920
Po 0 0 0 15 531BCA7B 00000000 ~~
Li SM2920
Kw CMS SM
Sc 0
AR 
Op 0 0 0
At SMD
T0 -0.8001 0 0.889 0.762 900 0.127 N V 21 N "SM2920"
T1 0.89916 0 0.889 0.762 900 0.127 N V 21 N "VAL**"
DS -5.00126 2.99974 -5.04952 2.99974 0.09906 21
DS -4.95046 -2.99974 -5.04952 -2.99974 0.09906 21
DS 5.00126 -2.99974 5.04952 -2.99974 0.09906 21
DS 5.00126 2.99974 5.04952 2.99974 0.09906 21
DS 2.25044 -2.99974 5.00126 -2.99974 0.09906 21
DS 5.04952 -2.99974 5.04952 2.99974 0.09906 21
DS 5.00126 2.99974 2.25044 2.99974 0.09906 21
DS -5.04952 -2.99974 -5.04952 2.99974 0.09906 21
DS -5.00126 2.99974 -2.25044 2.99974 0.09906 21
DS -2.25044 -2.99974 -5.00126 -2.99974 0.09906 21
$PAD
Sh "1" R 2.30124 5.6007 0 0 0
Dr 0 0 0
At SMD N 00888000
Ne 0 ""
Po -3.70078 0
$EndPAD
$PAD
Sh "2" R 2.30124 5.6007 0 0 0
Dr 0 0 0
At SMD N 00888000
Ne 0 ""
Po 3.70078 0
$EndPAD
$SHAPE3D
Na "smd\\chip_smd_pol_wide.wrl"
Sc 0.35 0.35 0.35
Of 0 0 0
Ro 0 0 0
$EndSHAPE3D
$EndMODULE SM2920
$MODULE littelfuse_451_453
Po 0 0 0 15 53F01EF0 00000000 ~~
Li littelfuse_451_453
Kw CMS SM
Sc 0
AR 
Op 0 0 0
At SMD
T0 -0.0635 2.921 1.016 0.762 0 0.127 N V 21 N "LITTELFUSE"
T1 0 -2.7305 1.016 0.762 0 0.127 N V 21 N "Val*"
DS 3.683 -1.8415 1.143 -1.8415 0.127 21
DS 3.683 1.8415 1.143 1.8415 0.127 21
DS 3.683 -1.8415 3.683 1.8415 0.127 21
DS -3.683 -1.8415 -3.683 1.8415 0.127 21
DS -3.683 1.8415 -1.143 1.8415 0.127 21
DS -3.683 -1.8415 -1.143 -1.8415 0.127 21
$PAD
Sh "1" R 1.9558 3.1496 0 0 0
Dr 0 0 0
At SMD N 00888000
Ne 0 ""
Po -2.4384 0
$EndPAD
$PAD
Sh "2" R 1.9558 3.1496 0 0 0
Dr 0 0 0
At SMD N 00888000
Ne 0 ""
Po 2.4638 0
$EndPAD
$EndMODULE littelfuse_451_453
$MODULE mx67329
Po 0 0 0 15 538B659A 00000000 ~~
Li mx67329
Sc 0
AR 
Op 0 0 0
.LocalClearance 0.20066
T0 0 -9.19988 1.00076 1.00076 0 0.25146 N V 21 N "mx67329"
T1 0 4.24942 1.524 1.524 0 0.3048 N I 21 N "VAL**"
DS -3.64998 0 -3.64998 5.45084 0.09906 21
DS -3.64998 5.45084 3.35026 5.45084 0.09906 21
DS 3.35026 5.45084 3.35026 0 0.09906 21
DS 3.35026 0 3.35026 -8.19912 0.09906 21
DS 3.35026 -8.19912 -3.64998 -8.19912 0.09906 21
DS -3.64998 -8.19912 -3.64998 0 0.09906 21
$PAD
Sh "1" O 1.19888 1.99898 0 0 0
Dr 0.8001 0 0
At STD N 00E0FFFF
Ne 0 ""
Po 2.10058 -7.10946
$EndPAD
$PAD
Sh "2" O 1.19888 1.99898 0 0 0
Dr 0.8001 0 0
At STD N 00E0FFFF
Ne 0 ""
Po 0.70104 -7.10946
$EndPAD
$PAD
Sh "3" O 1.19888 1.99898 0 0 0
Dr 0.8001 0 0
At STD N 00E0FFFF
Ne 0 ""
Po -0.70104 -7.10946
$EndPAD
$PAD
Sh "4" O 1.19888 1.99898 0 0 0
Dr 0.8001 0 0
At STD N 00E0FFFF
Ne 0 ""
Po -2.10058 -7.10946
$EndPAD
$PAD
Sh "5" C 2.4003 2.4003 0 0 0
Dr 0.59944 0 0 O 0.59944 1.6002
At STD N 00E0FFFF
Ne 0 ""
Po 2.27076 -3.84048
$EndPAD
$PAD
Sh "5" C 2.4003 2.4003 0 0 0
Dr 0.59944 0 0 O 0.59944 1.6002
At STD N 00E0FFFF
Ne 0 ""
Po 2.27076 0
$EndPAD
$PAD
Sh "5" C 2.4003 2.4003 0 0 0
Dr 0.59944 0 0 O 0.59944 1.6002
At STD N 00E0FFFF
Ne 0 ""
Po -2.57048 -3.84048
$EndPAD
$PAD
Sh "5" C 2.4003 2.4003 0 0 0
Dr 0.59944 0 0 O 0.59944 1.6002
At STD N 00E0FFFF
Ne 0 ""
Po -2.57048 0
$EndPAD
$EndMODULE mx67329
$EndLIBRARY
