PCBNEW-LibModule-V1  czw, 13 mar 2014, 19:30:52
# encoding utf-8
$INDEX
LQFP48
LQFP64
$EndINDEX
$MODULE LQFP48
Po 0 0 0 15 5321F918 00000000 ~~
Li LQFP48
Cd 48-Lead LQFP
Sc 00000000
AR
Op 0 0 0
.LocalClearance 79
T0 0 -2264 350 350 0 88 N V 21 N "U"
T1 0 492 350 350 0 88 N V 21 N "LQFP48"
DC -1201 1201 -1260 1260 39 21
DS -1378 1378 1378 1378 39 21
DS 1378 1377 1378 -1379 39 21
DS 1377 -1378 -1379 -1378 39 21
DS -1378 -1379 -1378 1377 39 21
$PAD
Sh "1" R 118 472 0 0 0
Dr 0 0 0
At SMD N 00888000
Ne 0 ""
Po -1083 1673
$EndPAD
$PAD
Sh "2" R 118 472 0 0 0
Dr 0 0 0
At SMD N 00888000
Ne 0 ""
Po -887 1673
$EndPAD
$PAD
Sh "3" R 118 472 0 0 0
Dr 0 0 0
At SMD N 00888000
Ne 0 ""
Po -690 1673
$EndPAD
$PAD
Sh "4" R 118 472 0 0 0
Dr 0 0 0
At SMD N 00888000
Ne 0 ""
Po -493 1673
$EndPAD
$PAD
Sh "5" R 118 472 0 0 0
Dr 0 0 0
At SMD N 00888000
Ne 0 ""
Po -296 1673
$EndPAD
$PAD
Sh "6" R 118 472 0 0 0
Dr 0 0 0
At SMD N 00888000
Ne 0 ""
Po -99 1673
$EndPAD
$PAD
Sh "7" R 118 472 0 0 0
Dr 0 0 0
At SMD N 00888000
Ne 0 ""
Po 98 1673
$EndPAD
$PAD
Sh "8" R 118 472 0 0 0
Dr 0 0 0
At SMD N 00888000
Ne 0 ""
Po 294 1673
$EndPAD
$PAD
Sh "9" R 118 472 0 0 0
Dr 0 0 0
At SMD N 00888000
Ne 0 ""
Po 491 1673
$EndPAD
$PAD
Sh "10" R 118 472 0 0 0
Dr 0 0 0
At SMD N 00888000
Ne 0 ""
Po 688 1673
$EndPAD
$PAD
Sh "11" R 118 472 0 0 0
Dr 0 0 0
At SMD N 00888000
Ne 0 ""
Po 885 1673
$EndPAD
$PAD
Sh "12" R 118 472 0 0 0
Dr 0 0 0
At SMD N 00888000
Ne 0 ""
Po 1082 1673
$EndPAD
$PAD
Sh "13" R 118 472 0 0 2700
Dr 0 0 0
At SMD N 00888000
Ne 0 ""
Po 1673 1084
$EndPAD
$PAD
Sh "14" R 118 472 0 0 2700
Dr 0 0 0
At SMD N 00888000
Ne 0 ""
Po 1673 887
$EndPAD
$PAD
Sh "15" R 118 472 0 0 2700
Dr 0 0 0
At SMD N 00888000
Ne 0 ""
Po 1673 690
$EndPAD
$PAD
Sh "16" R 118 472 0 0 2700
Dr 0 0 0
At SMD N 00888000
Ne 0 ""
Po 1673 493
$EndPAD
$PAD
Sh "17" R 118 472 0 0 2700
Dr 0 0 0
At SMD N 00888000
Ne 0 ""
Po 1673 296
$EndPAD
$PAD
Sh "18" R 118 472 0 0 2700
Dr 0 0 0
At SMD N 00888000
Ne 0 ""
Po 1673 99
$EndPAD
$PAD
Sh "19" R 118 472 0 0 2700
Dr 0 0 0
At SMD N 00888000
Ne 0 ""
Po 1673 -97
$EndPAD
$PAD
Sh "20" R 118 472 0 0 2700
Dr 0 0 0
At SMD N 00888000
Ne 0 ""
Po 1673 -294
$EndPAD
$PAD
Sh "21" R 118 472 0 0 2700
Dr 0 0 0
At SMD N 00888000
Ne 0 ""
Po 1673 -491
$EndPAD
$PAD
Sh "22" R 118 472 0 0 2700
Dr 0 0 0
At SMD N 00888000
Ne 0 ""
Po 1673 -688
$EndPAD
$PAD
Sh "23" R 118 472 0 0 2700
Dr 0 0 0
At SMD N 00888000
Ne 0 ""
Po 1673 -885
$EndPAD
$PAD
Sh "24" R 118 472 0 0 2700
Dr 0 0 0
At SMD N 00888000
Ne 0 ""
Po 1673 -1082
$EndPAD
$PAD
Sh "25" R 118 472 0 0 1800
Dr 0 0 0
At SMD N 00888000
Ne 0 ""
Po 1082 -1672
$EndPAD
$PAD
Sh "26" R 118 472 0 0 1800
Dr 0 0 0
At SMD N 00888000
Ne 0 ""
Po 885 -1672
$EndPAD
$PAD
Sh "27" R 118 472 0 0 1800
Dr 0 0 0
At SMD N 00888000
Ne 0 ""
Po 688 -1672
$EndPAD
$PAD
Sh "28" R 118 472 0 0 1800
Dr 0 0 0
At SMD N 00888000
Ne 0 ""
Po 491 -1672
$EndPAD
$PAD
Sh "29" R 118 472 0 0 1800
Dr 0 0 0
At SMD N 00888000
Ne 0 ""
Po 294 -1672
$EndPAD
$PAD
Sh "30" R 118 472 0 0 1800
Dr 0 0 0
At SMD N 00888000
Ne 0 ""
Po 98 -1672
$EndPAD
$PAD
Sh "31" R 118 472 0 0 1800
Dr 0 0 0
At SMD N 00888000
Ne 0 ""
Po -99 -1672
$EndPAD
$PAD
Sh "32" R 118 472 0 0 1800
Dr 0 0 0
At SMD N 00888000
Ne 0 ""
Po -296 -1672
$EndPAD
$PAD
Sh "33" R 118 472 0 0 1800
Dr 0 0 0
At SMD N 00888000
Ne 0 ""
Po -493 -1672
$EndPAD
$PAD
Sh "34" R 118 472 0 0 1800
Dr 0 0 0
At SMD N 00888000
Ne 0 ""
Po -690 -1672
$EndPAD
$PAD
Sh "35" R 118 472 0 0 1800
Dr 0 0 0
At SMD N 00888000
Ne 0 ""
Po -887 -1672
$EndPAD
$PAD
Sh "36" R 118 472 0 0 1800
Dr 0 0 0
At SMD N 00888000
Ne 0 ""
Po -1083 -1672
$EndPAD
$PAD
Sh "37" R 118 472 0 0 900
Dr 0 0 0
At SMD N 00888000
Ne 0 ""
Po -1672 -1082
$EndPAD
$PAD
Sh "38" R 118 472 0 0 900
Dr 0 0 0
At SMD N 00888000
Ne 0 ""
Po -1672 -885
$EndPAD
$PAD
Sh "39" R 118 472 0 0 900
Dr 0 0 0
At SMD N 00888000
Ne 0 ""
Po -1672 -688
$EndPAD
$PAD
Sh "40" R 118 472 0 0 900
Dr 0 0 0
At SMD N 00888000
Ne 0 ""
Po -1672 -491
$EndPAD
$PAD
Sh "41" R 118 472 0 0 900
Dr 0 0 0
At SMD N 00888000
Ne 0 ""
Po -1672 -294
$EndPAD
$PAD
Sh "42" R 118 472 0 0 900
Dr 0 0 0
At SMD N 00888000
Ne 0 ""
Po -1672 -97
$EndPAD
$PAD
Sh "43" R 118 472 0 0 900
Dr 0 0 0
At SMD N 00888000
Ne 0 ""
Po -1672 99
$EndPAD
$PAD
Sh "44" R 118 472 0 0 900
Dr 0 0 0
At SMD N 00888000
Ne 0 ""
Po -1672 296
$EndPAD
$PAD
Sh "45" R 118 472 0 0 900
Dr 0 0 0
At SMD N 00888000
Ne 0 ""
Po -1672 493
$EndPAD
$PAD
Sh "46" R 118 472 0 0 900
Dr 0 0 0
At SMD N 00888000
Ne 0 ""
Po -1672 690
$EndPAD
$PAD
Sh "47" R 118 472 0 0 900
Dr 0 0 0
At SMD N 00888000
Ne 0 ""
Po -1672 887
$EndPAD
$PAD
Sh "48" R 118 472 0 0 900
Dr 0 0 0
At SMD N 00888000
Ne 0 ""
Po -1672 1084
$EndPAD
$EndMODULE  LQFP48
$MODULE LQFP64
Po 0 0 0 15 5321F959 00000000 ~~
Li LQFP64
Cd 64-Lead LQFP
Sc 00000000
AR 
Op 0 0 0
.LocalClearance 79
T0 0 -2953 350 350 0 88 N V 21 N "U"
T1 0 1083 350 350 0 88 N V 21 N "LQFP64"
DC -1771 1772 -1870 1870 39 21
DS 1969 1969 -1968 1969 39 21
DS -1968 1969 -1968 -1909 39 21
DS -1968 -1909 1969 -1909 39 21
DS 1969 -1909 1989 1969 39 21
$PAD
Sh "1" R 118 472 0 0 0
Dr 0 0 0
At SMD N 00888000
Ne 0 ""
Po -1476 2264
$EndPAD
$PAD
Sh "2" R 118 472 0 0 0
Dr 0 0 0
At SMD N 00888000
Ne 0 ""
Po -1280 2264
$EndPAD
$PAD
Sh "3" R 118 472 0 0 0
Dr 0 0 0
At SMD N 00888000
Ne 0 ""
Po -1083 2264
$EndPAD
$PAD
Sh "4" R 118 472 0 0 0
Dr 0 0 0
At SMD N 00888000
Ne 0 ""
Po -886 2264
$EndPAD
$PAD
Sh "5" R 118 472 0 0 0
Dr 0 0 0
At SMD N 00888000
Ne 0 ""
Po -689 2264
$EndPAD
$PAD
Sh "6" R 118 472 0 0 0
Dr 0 0 0
At SMD N 00888000
Ne 0 ""
Po -492 2264
$EndPAD
$PAD
Sh "7" R 118 472 0 0 0
Dr 0 0 0
At SMD N 00888000
Ne 0 ""
Po -295 2264
$EndPAD
$PAD
Sh "8" R 118 472 0 0 0
Dr 0 0 0
At SMD N 00888000
Ne 0 ""
Po -99 2264
$EndPAD
$PAD
Sh "9" R 118 472 0 0 0
Dr 0 0 0
At SMD N 00888000
Ne 0 ""
Po 98 2264
$EndPAD
$PAD
Sh "10" R 118 472 0 0 0
Dr 0 0 0
At SMD N 00888000
Ne 0 ""
Po 295 2264
$EndPAD
$PAD
Sh "11" R 118 472 0 0 0
Dr 0 0 0
At SMD N 00888000
Ne 0 ""
Po 492 2264
$EndPAD
$PAD
Sh "12" R 118 472 0 0 0
Dr 0 0 0
At SMD N 00888000
Ne 0 ""
Po 689 2264
$EndPAD
$PAD
Sh "13" R 118 472 0 0 0
Dr 0 0 0
At SMD N 00888000
Ne 0 ""
Po 886 2264
$EndPAD
$PAD
Sh "14" R 118 472 0 0 0
Dr 0 0 0
At SMD N 00888000
Ne 0 ""
Po 1083 2264
$EndPAD
$PAD
Sh "15" R 118 472 0 0 0
Dr 0 0 0
At SMD N 00888000
Ne 0 ""
Po 1279 2264
$EndPAD
$PAD
Sh "16" R 118 472 0 0 0
Dr 0 0 0
At SMD N 00888000
Ne 0 ""
Po 1476 2264
$EndPAD
$PAD
Sh "17" R 118 472 0 0 2700
Dr 0 0 0
At SMD N 00888000
Ne 0 ""
Po 2264 1477
$EndPAD
$PAD
Sh "18" R 118 472 0 0 2700
Dr 0 0 0
At SMD N 00888000
Ne 0 ""
Po 2264 1280
$EndPAD
$PAD
Sh "19" R 118 472 0 0 2700
Dr 0 0 0
At SMD N 00888000
Ne 0 ""
Po 2264 1083
$EndPAD
$PAD
Sh "20" R 118 472 0 0 2700
Dr 0 0 0
At SMD N 00888000
Ne 0 ""
Po 2264 886
$EndPAD
$PAD
Sh "21" R 118 472 0 0 2700
Dr 0 0 0
At SMD N 00888000
Ne 0 ""
Po 2264 690
$EndPAD
$PAD
Sh "22" R 118 472 0 0 2700
Dr 0 0 0
At SMD N 00888000
Ne 0 ""
Po 2264 493
$EndPAD
$PAD
Sh "23" R 118 472 0 0 2700
Dr 0 0 0
At SMD N 00888000
Ne 0 ""
Po 2264 296
$EndPAD
$PAD
Sh "24" R 118 472 0 0 2700
Dr 0 0 0
At SMD N 00888000
Ne 0 ""
Po 2264 99
$EndPAD
$PAD
Sh "25" R 118 472 0 0 2700
Dr 0 0 0
At SMD N 00888000
Ne 0 ""
Po 2264 -98
$EndPAD
$PAD
Sh "26" R 118 472 0 0 2700
Dr 0 0 0
At SMD N 00888000
Ne 0 ""
Po 2264 -295
$EndPAD
$PAD
Sh "27" R 118 472 0 0 2700
Dr 0 0 0
At SMD N 00888000
Ne 0 ""
Po 2264 -492
$EndPAD
$PAD
Sh "28" R 118 472 0 0 2700
Dr 0 0 0
At SMD N 00888000
Ne 0 ""
Po 2264 -688
$EndPAD
$PAD
Sh "29" R 118 472 0 0 2700
Dr 0 0 0
At SMD N 00888000
Ne 0 ""
Po 2264 -885
$EndPAD
$PAD
Sh "30" R 118 472 0 0 2700
Dr 0 0 0
At SMD N 00888000
Ne 0 ""
Po 2264 -1082
$EndPAD
$PAD
Sh "31" R 118 472 0 0 2700
Dr 0 0 0
At SMD N 00888000
Ne 0 ""
Po 2264 -1279
$EndPAD
$PAD
Sh "32" R 118 472 0 0 2700
Dr 0 0 0
At SMD N 00888000
Ne 0 ""
Po 2264 -1476
$EndPAD
$PAD
Sh "33" R 118 472 0 0 1800
Dr 0 0 0
At SMD N 00888000
Ne 0 ""
Po 1476 -2262
$EndPAD
$PAD
Sh "34" R 118 472 0 0 1800
Dr 0 0 0
At SMD N 00888000
Ne 0 ""
Po 1279 -2262
$EndPAD
$PAD
Sh "35" R 118 472 0 0 1800
Dr 0 0 0
At SMD N 00888000
Ne 0 ""
Po 1083 -2262
$EndPAD
$PAD
Sh "36" R 118 472 0 0 1800
Dr 0 0 0
At SMD N 00888000
Ne 0 ""
Po 886 -2262
$EndPAD
$PAD
Sh "37" R 118 472 0 0 1800
Dr 0 0 0
At SMD N 00888000
Ne 0 ""
Po 689 -2262
$EndPAD
$PAD
Sh "38" R 118 472 0 0 1800
Dr 0 0 0
At SMD N 00888000
Ne 0 ""
Po 492 -2262
$EndPAD
$PAD
Sh "39" R 118 472 0 0 1800
Dr 0 0 0
At SMD N 00888000
Ne 0 ""
Po 295 -2262
$EndPAD
$PAD
Sh "40" R 118 472 0 0 1800
Dr 0 0 0
At SMD N 00888000
Ne 0 ""
Po 98 -2262
$EndPAD
$PAD
Sh "41" R 118 472 0 0 1800
Dr 0 0 0
At SMD N 00888000
Ne 0 ""
Po -99 -2262
$EndPAD
$PAD
Sh "42" R 118 472 0 0 1800
Dr 0 0 0
At SMD N 00888000
Ne 0 ""
Po -295 -2262
$EndPAD
$PAD
Sh "43" R 118 472 0 0 1800
Dr 0 0 0
At SMD N 00888000
Ne 0 ""
Po -492 -2262
$EndPAD
$PAD
Sh "44" R 118 472 0 0 1800
Dr 0 0 0
At SMD N 00888000
Ne 0 ""
Po -689 -2262
$EndPAD
$PAD
Sh "45" R 118 472 0 0 1800
Dr 0 0 0
At SMD N 00888000
Ne 0 ""
Po -886 -2262
$EndPAD
$PAD
Sh "46" R 118 472 0 0 1800
Dr 0 0 0
At SMD N 00888000
Ne 0 ""
Po -1083 -2262
$EndPAD
$PAD
Sh "47" R 118 472 0 0 1800
Dr 0 0 0
At SMD N 00888000
Ne 0 ""
Po -1280 -2262
$EndPAD
$PAD
Sh "48" R 118 472 0 0 1800
Dr 0 0 0
At SMD N 00888000
Ne 0 ""
Po -1476 -2262
$EndPAD
$PAD
Sh "49" R 118 472 0 0 900
Dr 0 0 0
At SMD N 00888000
Ne 0 ""
Po -2263 -1476
$EndPAD
$PAD
Sh "50" R 118 472 0 0 900
Dr 0 0 0
At SMD N 00888000
Ne 0 ""
Po -2263 -1279
$EndPAD
$PAD
Sh "51" R 118 472 0 0 900
Dr 0 0 0
At SMD N 00888000
Ne 0 ""
Po -2263 -1082
$EndPAD
$PAD
Sh "52" R 118 472 0 0 900
Dr 0 0 0
At SMD N 00888000
Ne 0 ""
Po -2263 -885
$EndPAD
$PAD
Sh "53" R 118 472 0 0 900
Dr 0 0 0
At SMD N 00888000
Ne 0 ""
Po -2263 -688
$EndPAD
$PAD
Sh "54" R 118 472 0 0 900
Dr 0 0 0
At SMD N 00888000
Ne 0 ""
Po -2263 -492
$EndPAD
$PAD
Sh "55" R 118 472 0 0 900
Dr 0 0 0
At SMD N 00888000
Ne 0 ""
Po -2263 -295
$EndPAD
$PAD
Sh "56" R 118 472 0 0 900
Dr 0 0 0
At SMD N 00888000
Ne 0 ""
Po -2263 -98
$EndPAD
$PAD
Sh "57" R 118 472 0 0 900
Dr 0 0 0
At SMD N 00888000
Ne 0 ""
Po -2263 99
$EndPAD
$PAD
Sh "58" R 118 472 0 0 900
Dr 0 0 0
At SMD N 00888000
Ne 0 ""
Po -2263 296
$EndPAD
$PAD
Sh "59" R 118 472 0 0 900
Dr 0 0 0
At SMD N 00888000
Ne 0 ""
Po -2263 493
$EndPAD
$PAD
Sh "60" R 118 472 0 0 900
Dr 0 0 0
At SMD N 00888000
Ne 0 ""
Po -2263 690
$EndPAD
$PAD
Sh "61" R 118 472 0 0 900
Dr 0 0 0
At SMD N 00888000
Ne 0 ""
Po -2263 886
$EndPAD
$PAD
Sh "62" R 118 472 0 0 900
Dr 0 0 0
At SMD N 00888000
Ne 0 ""
Po -2263 1083
$EndPAD
$PAD
Sh "63" R 118 472 0 0 900
Dr 0 0 0
At SMD N 00888000
Ne 0 ""
Po -2263 1280
$EndPAD
$PAD
Sh "64" R 118 472 0 0 900
Dr 0 0 0
At SMD N 00888000
Ne 0 ""
Po -2263 1477
$EndPAD
$EndMODULE  LQFP64
$EndLIBRARY
