PCBNEW-LibModule-V1  nie, 23 mar 2014, 20:23:31
# encoding utf-8
$INDEX
TMM-3-x-10-x
TMM-3-x-12-x
TMM-4-x-10-x
TMM-4-x-12-x
$EndINDEX
$MODULE TMM-3-x-12-x
Po 0 0 0 15 5321CCE4 00000000 ~~
Li TMM-3-x-12-x
Sc 00000000
AR TMM-4-x-10-x
Op 0 0 0
T0 0 1650 600 600 0 120 N V 21 N "TMM-3-x-12-x"
T1 0 -1600 600 600 0 120 N V 21 N "VAL**"
DS -3450 -1000 -2400 -1000 150 21
DS -2450 1000 -3450 1000 150 21
DS -2400 1000 3450 1000 150 21
DS -2400 -1000 3450 -1000 150 21
DS -3450 1000 -3450 -1000 150 21
DS 3450 -1000 3450 1000 150 21
$PAD
Sh "10" C 709 709 0 0 0
Dr 394 0 0
At STD N 00E0FFFF
Ne 0 ""
Po -1750 500
$EndPAD
$PAD
Sh "9" C 709 709 0 0 0
Dr 394 0 0
At STD N 00E0FFFF
Ne 0 ""
Po -1250 -500
$EndPAD
$PAD
Sh "8" C 709 709 0 0 0
Dr 394 0 0
At STD N 00E0FFFF
Ne 0 ""
Po -750 500
$EndPAD
$PAD
Sh "7" C 709 709 0 0 0
Dr 394 0 0
At STD N 00E0FFFF
Ne 0 ""
Po -250 -500
$EndPAD
$PAD
Sh "6" C 709 709 0 0 0
Dr 394 0 0
At STD N 00E0FFFF
Ne 0 ""
Po 250 500
$EndPAD
$PAD
Sh "5" C 709 709 0 0 0
Dr 394 0 0
At STD N 00E0FFFF
Ne 0 ""
Po 750 -500
$EndPAD
$PAD
Sh "4" C 709 709 0 0 0
Dr 394 0 0
At STD N 00E0FFFF
Ne 0 ""
Po 1250 500
$EndPAD
$PAD
Sh "3" C 709 709 0 0 0
Dr 394 0 0
At STD N 00E0FFFF
Ne 0 ""
Po 1750 -500
$EndPAD
$PAD
Sh "2" C 709 709 0 0 0
Dr 394 0 0
At STD N 00E0FFFF
Ne 0 ""
Po 2250 500
$EndPAD
$PAD
Sh "1" R 709 709 0 0 0
Dr 394 0 0
At STD N 00E0FFFF
Ne 0 ""
Po 2750 -500
$EndPAD
$PAD
Sh "11" C 709 709 0 0 0
Dr 394 0 0
At STD N 00E0FFFF
Ne 0 ""
Po -2250 -500
$EndPAD
$PAD
Sh "12" C 709 709 0 0 0
Dr 394 0 0
At STD N 00E0FFFF
Ne 0 ""
Po -2750 500
$EndPAD
$EndMODULE  TMM-3-x-12-x
$MODULE TMM-3-x-10-x
Po 0 0 0 15 5321CCF1 00000000 ~~
Li TMM-3-x-10-x
Sc 00000000
AR TMM-4-x-10-x
Op 0 0 0
T0 150 1800 600 600 0 120 N V 21 N "TMM-3-x-10-x"
T1 0 -1600 600 600 0 120 N V 21 N "VAL**"
DS -2900 1000 2950 1000 150 21
DS -2900 -1000 2950 -1000 150 21
DS -2900 1000 -2900 -1000 150 21
DS 2950 -1000 2950 1000 150 21
$PAD
Sh "10" C 709 709 0 0 0
Dr 394 0 0
At STD N 00E0FFFF
Ne 0 ""
Po -2250 500
$EndPAD
$PAD
Sh "9" C 709 709 0 0 0
Dr 394 0 0
At STD N 00E0FFFF
Ne 0 ""
Po -1750 -500
$EndPAD
$PAD
Sh "8" C 709 709 0 0 0
Dr 394 0 0
At STD N 00E0FFFF
Ne 0 ""
Po -1250 500
$EndPAD
$PAD
Sh "7" C 709 709 0 0 0
Dr 394 0 0
At STD N 00E0FFFF
Ne 0 ""
Po -750 -500
$EndPAD
$PAD
Sh "6" C 709 709 0 0 0
Dr 394 0 0
At STD N 00E0FFFF
Ne 0 ""
Po -250 500
$EndPAD
$PAD
Sh "5" C 709 709 0 0 0
Dr 394 0 0
At STD N 00E0FFFF
Ne 0 ""
Po 250 -500
$EndPAD
$PAD
Sh "4" C 709 709 0 0 0
Dr 394 0 0
At STD N 00E0FFFF
Ne 0 ""
Po 750 500
$EndPAD
$PAD
Sh "3" C 709 709 0 0 0
Dr 394 0 0
At STD N 00E0FFFF
Ne 0 ""
Po 1250 -500
$EndPAD
$PAD
Sh "2" C 709 709 0 0 0
Dr 394 0 0
At STD N 00E0FFFF
Ne 0 ""
Po 1750 500
$EndPAD
$PAD
Sh "1" R 709 709 0 0 0
Dr 394 0 0
At STD N 00E0FFFF
Ne 0 ""
Po 2250 -500
$EndPAD
$EndMODULE  TMM-3-x-10-x
$MODULE TMM-4-x-12-x
Po 0 0 0 15 532F2F1A 00000000 ~~
Li TMM-4-x-12-x
Sc 00000000
AR TMM-4-x-10-x
Op 0 0 0
T0 0 1700 600 600 0 120 N V 21 N "TMM-4-x-12-x"
T1 0 -1600 600 600 0 120 N V 21 N "VAL**"
DS 2950 1000 3950 1000 150 21
DS 2950 -1000 3950 -1000 150 21
DS -3950 1000 -3950 -1000 150 21
DS 3950 -1000 3950 1000 150 21
DS -3950 -1000 2950 -1000 150 21
DS 2950 1000 -3950 1000 150 21
$PAD
Sh "1" R 709 709 0 0 0
Dr 394 0 0
At STD N 00E0FFFF
Ne 0 ""
Po -2750 500
$EndPAD
$PAD
Sh "2" C 709 709 0 0 0
Dr 394 0 0
At STD N 00E0FFFF
Ne 0 ""
Po -2250 -500
$EndPAD
$PAD
Sh "3" C 709 709 0 0 0
Dr 394 0 0
At STD N 00E0FFFF
Ne 0 ""
Po -1750 500
$EndPAD
$PAD
Sh "4" C 709 709 0 0 0
Dr 394 0 0
At STD N 00E0FFFF
Ne 0 ""
Po -1250 -500
$EndPAD
$PAD
Sh "5" C 709 709 0 0 0
Dr 394 0 0
At STD N 00E0FFFF
Ne 0 ""
Po -750 500
$EndPAD
$PAD
Sh "6" C 709 709 0 0 0
Dr 394 0 0
At STD N 00E0FFFF
Ne 0 ""
Po -250 -500
$EndPAD
$PAD
Sh "7" C 709 709 0 0 0
Dr 394 0 0
At STD N 00E0FFFF
Ne 0 ""
Po 250 500
$EndPAD
$PAD
Sh "8" C 709 709 0 0 0
Dr 394 0 0
At STD N 00E0FFFF
Ne 0 ""
Po 750 -500
$EndPAD
$PAD
Sh "9" C 709 709 0 0 0
Dr 394 0 0
At STD N 00E0FFFF
Ne 0 ""
Po 1250 500
$EndPAD
$PAD
Sh "10" C 709 709 0 0 0
Dr 394 0 0
At STD N 00E0FFFF
Ne 0 ""
Po 1750 -500
$EndPAD
$PAD
Sh "" C 709 709 0 0 0
Dr 709 0 0
At HOLE N 00E0FFFF
Ne 0 ""
Po 3281 209
$EndPAD
$PAD
Sh "11" C 709 709 0 0 0
Dr 394 0 0
At STD N 00E0FFFF
Ne 0 ""
Po 2250 500
$EndPAD
$PAD
Sh "12" C 709 709 0 0 0
Dr 394 0 0
At STD N 00E0FFFF
Ne 0 ""
Po 2750 -500
$EndPAD
$EndMODULE  TMM-4-x-12-x
$MODULE TMM-4-x-10-x
Po 0 0 0 15 532F34AF 00000000 ~~
Li TMM-4-x-10-x
Sc 00000000
AR TMM-4-x-10-x
Op 0 0 0
T0 0 1700 600 600 0 120 N V 21 N "TMM-4-x-10-x"
T1 0 -1650 600 600 0 120 N V 21 N "VAL**"
DS -3450 1000 -3450 -1000 150 21
DS 3450 -1000 3450 1000 150 21
DS -3450 -1000 3450 -1000 150 21
DS 3450 1000 -3450 1000 150 21
$PAD
Sh "1" R 709 709 0 0 0
Dr 394 0 0
At STD N 00E0FFFF
Ne 0 ""
Po -2250 500
$EndPAD
$PAD
Sh "2" C 709 709 0 0 0
Dr 394 0 0
At STD N 00E0FFFF
Ne 0 ""
Po -1750 -500
$EndPAD
$PAD
Sh "3" C 709 709 0 0 0
Dr 394 0 0
At STD N 00E0FFFF
Ne 0 ""
Po -1250 500
$EndPAD
$PAD
Sh "4" C 709 709 0 0 0
Dr 394 0 0
At STD N 00E0FFFF
Ne 0 ""
Po -750 -500
$EndPAD
$PAD
Sh "5" C 709 709 0 0 0
Dr 394 0 0
At STD N 00E0FFFF
Ne 0 ""
Po -250 500
$EndPAD
$PAD
Sh "6" C 709 709 0 0 0
Dr 394 0 0
At STD N 00E0FFFF
Ne 0 ""
Po 250 -500
$EndPAD
$PAD
Sh "7" C 709 709 0 0 0
Dr 394 0 0
At STD N 00E0FFFF
Ne 0 ""
Po 750 500
$EndPAD
$PAD
Sh "8" C 709 709 0 0 0
Dr 394 0 0
At STD N 00E0FFFF
Ne 0 ""
Po 1250 -500
$EndPAD
$PAD
Sh "9" C 709 709 0 0 0
Dr 394 0 0
At STD N 00E0FFFF
Ne 0 ""
Po 1750 500
$EndPAD
$PAD
Sh "10" C 709 709 0 0 0
Dr 394 0 0
At STD N 00E0FFFF
Ne 0 ""
Po 2250 -500
$EndPAD
$PAD
Sh "" C 709 709 0 0 0
Dr 709 0 0
At HOLE N 00E0FFFF
Ne 0 ""
Po 2750 200
$EndPAD
$EndMODULE  TMM-4-x-10-x
$EndLIBRARY
