PCBNEW-LibModule-V1  czw, 12 mar 2015, 12:25:16
# encoding utf-8
Units mm
$INDEX
MS-DIP38
$EndINDEX
$MODULE MS-DIP38
Po 0 0 0 15 5501779A 00000000 ~~
Li MS-DIP38
Sc 0
AR 
Op 0 0 0
T0 0 -1.27 1 1 0 0.15 N V 21 N "MS-DIP38"
T1 0 1.27 1 1 0 0.15 N V 21 N "VAL**"
DS 19.05 21.59 19.05 -21.59 0.254 21
DS -19.05 -21.59 -19.05 21.59 0.254 21
DS -19.05 -21.59 19.05 -21.59 0.254 21
DS 19.05 21.59 -19.05 21.59 0.254 21
$PAD
Sh "0" C 1.8 1.8 0 0 0
Dr 1 0 0
At STD N 00E0FFFF
Ne 0 ""
Po 16.51 11.43
$EndPAD
$PAD
Sh "0" C 1.8 1.8 0 0 0
Dr 1 0 0
At STD N 00E0FFFF
Ne 0 ""
Po 16.51 8.89
$EndPAD
$PAD
Sh "0" C 1.8 1.8 0 0 0
Dr 1 0 0
At STD N 00E0FFFF
Ne 0 ""
Po 16.51 6.35
$EndPAD
$PAD
Sh "0" C 1.8 1.8 0 0 0
Dr 1 0 0
At STD N 00E0FFFF
Ne 0 ""
Po 16.51 3.81
$EndPAD
$PAD
Sh "0" C 1.8 1.8 0 0 0
Dr 1 0 0
At STD N 00E0FFFF
Ne 0 ""
Po 16.51 1.27
$EndPAD
$PAD
Sh "0" C 1.8 1.8 0 0 0
Dr 1 0 0
At STD N 00E0FFFF
Ne 0 ""
Po 6.35 16.51
$EndPAD
$PAD
Sh "0" C 1.8 1.8 0 0 0
Dr 1 0 0
At STD N 00E0FFFF
Ne 0 ""
Po 16.51 19.05
$EndPAD
$PAD
Sh "0" C 1.8 1.8 0 0 0
Dr 1 0 0
At STD N 00E0FFFF
Ne 0 ""
Po 13.97 19.05
$EndPAD
$PAD
Sh "0" C 1.8 1.8 0 0 0
Dr 1 0 0
At STD N 00E0FFFF
Ne 0 ""
Po 11.43 19.05
$EndPAD
$PAD
Sh "0" C 1.8 1.8 0 0 0
Dr 1 0 0
At STD N 00E0FFFF
Ne 0 ""
Po 8.89 19.05
$EndPAD
$PAD
Sh "0" C 1.8 1.8 0 0 0
Dr 1 0 0
At STD N 00E0FFFF
Ne 0 ""
Po 8.89 16.51
$EndPAD
$PAD
Sh "0" C 1.8 1.8 0 0 0
Dr 1 0 0
At STD N 00E0FFFF
Ne 0 ""
Po 11.43 16.51
$EndPAD
$PAD
Sh "0" C 1.8 1.8 0 0 0
Dr 1 0 0
At STD N 00E0FFFF
Ne 0 ""
Po 13.97 16.51
$EndPAD
$PAD
Sh "0" C 1.8 1.8 0 0 0
Dr 1 0 0
At STD N 00E0FFFF
Ne 0 ""
Po 16.51 16.51
$EndPAD
$PAD
Sh "0" C 1.8 1.8 0 0 0
Dr 1 0 0
At STD N 00E0FFFF
Ne 0 ""
Po 16.51 -19.05
$EndPAD
$PAD
Sh "0" C 1.8 1.8 0 0 0
Dr 1 0 0
At STD N 00E0FFFF
Ne 0 ""
Po 13.97 -19.05
$EndPAD
$PAD
Sh "0" C 1.8 1.8 0 0 0
Dr 1 0 0
At STD N 00E0FFFF
Ne 0 ""
Po 11.43 -19.05
$EndPAD
$PAD
Sh "0" C 1.8 1.8 0 0 0
Dr 1 0 0
At STD N 00E0FFFF
Ne 0 ""
Po 8.89 -19.05
$EndPAD
$PAD
Sh "1" C 1.8 1.8 0 0 0
Dr 1 0 0
At STD N 00E0FFFF
Ne 0 ""
Po -16.51 19.05
$EndPAD
$PAD
Sh "2" C 1.8 1.8 0 0 0
Dr 1 0 0
At STD N 00E0FFFF
Ne 0 ""
Po -16.51 16.51
$EndPAD
$PAD
Sh "3" C 1.8 1.8 0 0 0
Dr 1 0 0
At STD N 00E0FFFF
Ne 0 ""
Po -13.97 19.05
$EndPAD
$PAD
Sh "4" C 1.8 1.8 0 0 0
Dr 1 0 0
At STD N 00E0FFFF
Ne 0 ""
Po -13.97 16.51
$EndPAD
$PAD
Sh "5" C 1.8 1.8 0 0 0
Dr 1 0 0
At STD N 00E0FFFF
Ne 0 ""
Po -11.43 19.05
$EndPAD
$PAD
Sh "6" C 1.8 1.8 0 0 0
Dr 1 0 0
At STD N 00E0FFFF
Ne 0 ""
Po -11.43 16.51
$EndPAD
$PAD
Sh "7" C 1.8 1.8 0 0 0
Dr 1 0 0
At STD N 00E0FFFF
Ne 0 ""
Po -8.89 19.05
$EndPAD
$PAD
Sh "8" C 1.8 1.8 0 0 0
Dr 1 0 0
At STD N 00E0FFFF
Ne 0 ""
Po -8.89 16.51
$EndPAD
$PAD
Sh "9" C 1.8 1.8 0 0 0
Dr 1 0 0
At STD N 00E0FFFF
Ne 0 ""
Po -6.35 19.05
$EndPAD
$PAD
Sh "10" C 1.8 1.8 0 0 0
Dr 1 0 0
At STD N 00E0FFFF
Ne 0 ""
Po -6.35 16.51
$EndPAD
$PAD
Sh "11" C 1.8 1.8 0 0 0
Dr 1 0 0
At STD N 00E0FFFF
Ne 0 ""
Po -3.81 19.05
$EndPAD
$PAD
Sh "12" C 1.8 1.8 0 0 0
Dr 1 0 0
At STD N 00E0FFFF
Ne 0 ""
Po -3.81 16.51
$EndPAD
$PAD
Sh "13" C 1.8 1.8 0 0 0
Dr 1 0 0
At STD N 00E0FFFF
Ne 0 ""
Po -1.27 19.05
$EndPAD
$PAD
Sh "14" C 1.8 1.8 0 0 0
Dr 1 0 0
At STD N 00E0FFFF
Ne 0 ""
Po -1.27 16.51
$EndPAD
$PAD
Sh "15" C 1.8 1.8 0 0 0
Dr 1 0 0
At STD N 00E0FFFF
Ne 0 ""
Po 1.27 19.05
$EndPAD
$PAD
Sh "16" C 1.8 1.8 0 0 0
Dr 1 0 0
At STD N 00E0FFFF
Ne 0 ""
Po 1.27 16.51
$EndPAD
$PAD
Sh "17" C 1.8 1.8 0 0 0
Dr 1 0 0
At STD N 00E0FFFF
Ne 0 ""
Po 3.81 19.05
$EndPAD
$PAD
Sh "18" C 1.8 1.8 0 0 0
Dr 1 0 0
At STD N 00E0FFFF
Ne 0 ""
Po 3.81 16.51
$EndPAD
$PAD
Sh "19" C 1.8 1.8 0 0 0
Dr 1 0 0
At STD N 00E0FFFF
Ne 0 ""
Po 6.35 19.05
$EndPAD
$PAD
Sh "20" C 1.8 1.8 0 0 0
Dr 1 0 0
At STD N 00E0FFFF
Ne 0 ""
Po 6.35 -19.05
$EndPAD
$PAD
Sh "21" C 1.8 1.8 0 0 0
Dr 1 0 0
At STD N 00E0FFFF
Ne 0 ""
Po 3.81 -16.51
$EndPAD
$PAD
Sh "22" C 1.8 1.8 0 0 0
Dr 1 0 0
At STD N 00E0FFFF
Ne 0 ""
Po 3.81 -19.05
$EndPAD
$PAD
Sh "23" C 1.8 1.8 0 0 0
Dr 1 0 0
At STD N 00E0FFFF
Ne 0 ""
Po 1.27 -16.51
$EndPAD
$PAD
Sh "24" C 1.8 1.8 0 0 0
Dr 1 0 0
At STD N 00E0FFFF
Ne 0 ""
Po 1.27 -19.05
$EndPAD
$PAD
Sh "25" C 1.8 1.8 0 0 0
Dr 1 0 0
At STD N 00E0FFFF
Ne 0 ""
Po -1.27 -16.51
$EndPAD
$PAD
Sh "26" C 1.8 1.8 0 0 0
Dr 1 0 0
At STD N 00E0FFFF
Ne 0 ""
Po -1.27 -19.05
$EndPAD
$PAD
Sh "27" C 1.8 1.8 0 0 0
Dr 1 0 0
At STD N 00E0FFFF
Ne 0 ""
Po -3.81 -16.51
$EndPAD
$PAD
Sh "28" C 1.8 1.8 0 0 0
Dr 1 0 0
At STD N 00E0FFFF
Ne 0 ""
Po -3.81 -19.05
$EndPAD
$PAD
Sh "29" C 1.8 1.8 0 0 0
Dr 1 0 0
At STD N 00E0FFFF
Ne 0 ""
Po -6.35 -16.51
$EndPAD
$PAD
Sh "30" C 1.8 1.8 0 0 0
Dr 1 0 0
At STD N 00E0FFFF
Ne 0 ""
Po -6.35 -19.05
$EndPAD
$PAD
Sh "31" C 1.8 1.8 0 0 0
Dr 1 0 0
At STD N 00E0FFFF
Ne 0 ""
Po -8.89 -16.51
$EndPAD
$PAD
Sh "32" C 1.8 1.8 0 0 0
Dr 1 0 0
At STD N 00E0FFFF
Ne 0 ""
Po -8.89 -19.05
$EndPAD
$PAD
Sh "33" C 1.8 1.8 0 0 0
Dr 1 0 0
At STD N 00E0FFFF
Ne 0 ""
Po -11.43 -16.51
$EndPAD
$PAD
Sh "34" C 1.8 1.8 0 0 0
Dr 1 0 0
At STD N 00E0FFFF
Ne 0 ""
Po -11.43 -19.05
$EndPAD
$PAD
Sh "35" C 1.8 1.8 0 0 0
Dr 1 0 0
At STD N 00E0FFFF
Ne 0 ""
Po -13.97 -16.51
$EndPAD
$PAD
Sh "36" C 1.8 1.8 0 0 0
Dr 1 0 0
At STD N 00E0FFFF
Ne 0 ""
Po -13.97 -19.05
$EndPAD
$PAD
Sh "37" C 1.8 1.8 0 0 0
Dr 1 0 0
At STD N 00E0FFFF
Ne 0 ""
Po -16.51 -16.51
$EndPAD
$PAD
Sh "38" C 1.8 1.8 0 0 0
Dr 1 0 0
At STD N 00E0FFFF
Ne 0 ""
Po -16.51 -19.05
$EndPAD
$PAD
Sh "0" C 1.8 1.8 0 0 0
Dr 1 0 0
At STD N 00E0FFFF
Ne 0 ""
Po 6.35 -16.51
$EndPAD
$PAD
Sh "0" C 1.8 1.8 0 0 0
Dr 1 0 0
At STD N 00E0FFFF
Ne 0 ""
Po 8.89 -16.51
$EndPAD
$PAD
Sh "0" C 1.8 1.8 0 0 0
Dr 1 0 0
At STD N 00E0FFFF
Ne 0 ""
Po 11.43 -16.51
$EndPAD
$PAD
Sh "0" C 1.8 1.8 0 0 0
Dr 1 0 0
At STD N 00E0FFFF
Ne 0 ""
Po 13.97 -16.51
$EndPAD
$PAD
Sh "0" C 1.8 1.8 0 0 0
Dr 1 0 0
At STD N 00E0FFFF
Ne 0 ""
Po 16.51 -16.51
$EndPAD
$PAD
Sh "0" C 1.8 1.8 0 0 0
Dr 1 0 0
At STD N 00E0FFFF
Ne 0 ""
Po 16.51 -11.43
$EndPAD
$PAD
Sh "0" C 1.8 1.8 0 0 0
Dr 1 0 0
At STD N 00E0FFFF
Ne 0 ""
Po 16.51 -8.89
$EndPAD
$PAD
Sh "0" C 1.8 1.8 0 0 0
Dr 1 0 0
At STD N 00E0FFFF
Ne 0 ""
Po 16.51 -6.35
$EndPAD
$PAD
Sh "0" C 1.8 1.8 0 0 0
Dr 1 0 0
At STD N 00E0FFFF
Ne 0 ""
Po 16.51 -3.81
$EndPAD
$PAD
Sh "0" C 1.8 1.8 0 0 0
Dr 1 0 0
At STD N 00E0FFFF
Ne 0 ""
Po 16.51 -1.27
$EndPAD
$EndMODULE MS-DIP38
$EndLIBRARY
