PCBNEW-LibModule-V1  pon, 9 lut 2015, 13:58:22
# encoding utf-8
Units mm
$INDEX
PIN_ARRAY_23X2
pin_array_13x2_a
$EndINDEX
$MODULE PIN_ARRAY_23X2
Po 0 0 0 15 531BCFBA 00000000 ~~
Li PIN_ARRAY_23X2
Cd Double rangee de contacts 2 x 12 pins
Kw CONN
Sc 0
AR 
Op 0 0 0
T0 0 -3.81 1.016 1.016 0 0.254 N V 21 N "REF*"
T1 0 3.81 1.016 1.016 0 0.2032 N V 21 N "PIN_ARRAY_23X2"
DS 21.59 2.54 29.21 2.54 0.3048 21
DS 21.59 -2.54 29.21 -2.54 0.3048 21
DS 21.59 2.54 -29.21 2.54 0.3048 21
DS 21.59 -2.54 -29.21 -2.54 0.3048 21
DS 29.21 -2.54 29.21 2.54 0.3048 21
DS -29.21 -2.54 -29.21 2.54 0.3048 21
$PAD
Sh "1" R 1.524 1.524 0 0 0
Dr 0.8128 0 0
At STD N 00E0FFFF
Ne 0 ""
Po -27.94 1.27
$EndPAD
$PAD
Sh "2" C 1.524 1.524 0 0 0
Dr 1.016 0 0
At STD N 00E0FFFF
Ne 0 ""
Po -27.94 -1.27
$EndPAD
$PAD
Sh "11" C 1.524 1.524 0 0 0
Dr 1.016 0 0
At STD N 00E0FFFF
Ne 0 ""
Po -15.24 1.27
$EndPAD
$PAD
Sh "4" C 1.524 1.524 0 0 0
Dr 1.016 0 0
At STD N 00E0FFFF
Ne 0 ""
Po -25.4 -1.27
$EndPAD
$PAD
Sh "13" C 1.524 1.524 0 0 0
Dr 1.016 0 0
At STD N 00E0FFFF
Ne 0 ""
Po -12.7 1.27
$EndPAD
$PAD
Sh "6" C 1.524 1.524 0 0 0
Dr 1.016 0 0
At STD N 00E0FFFF
Ne 0 ""
Po -22.86 -1.27
$EndPAD
$PAD
Sh "15" C 1.524 1.524 0 0 0
Dr 1.016 0 0
At STD N 00E0FFFF
Ne 0 ""
Po -10.16 1.27
$EndPAD
$PAD
Sh "8" C 1.524 1.524 0 0 0
Dr 1.016 0 0
At STD N 00E0FFFF
Ne 0 ""
Po -20.32 -1.27
$EndPAD
$PAD
Sh "17" C 1.524 1.524 0 0 0
Dr 1.016 0 0
At STD N 00E0FFFF
Ne 0 ""
Po -7.62 1.27
$EndPAD
$PAD
Sh "10" C 1.524 1.524 0 0 0
Dr 1.016 0 0
At STD N 00E0FFFF
Ne 0 ""
Po -17.78 -1.27
$EndPAD
$PAD
Sh "19" C 1.524 1.524 0 0 0
Dr 1.016 0 0
At STD N 00E0FFFF
Ne 0 ""
Po -5.08 1.27
$EndPAD
$PAD
Sh "12" C 1.524 1.524 0 0 0
Dr 1.016 0 0
At STD N 00E0FFFF
Ne 0 ""
Po -15.24 -1.27
$EndPAD
$PAD
Sh "21" C 1.524 1.524 0 0 0
Dr 1.016 0 0
At STD N 00E0FFFF
Ne 0 ""
Po -2.54 1.27
$EndPAD
$PAD
Sh "14" C 1.524 1.524 0 0 0
Dr 1.016 0 0
At STD N 00E0FFFF
Ne 0 ""
Po -12.7 -1.27
$EndPAD
$PAD
Sh "23" C 1.524 1.524 0 0 0
Dr 1.016 0 0
At STD N 00E0FFFF
Ne 0 ""
Po 0 1.27
$EndPAD
$PAD
Sh "16" C 1.524 1.524 0 0 0
Dr 1.016 0 0
At STD N 00E0FFFF
Ne 0 ""
Po -10.16 -1.27
$EndPAD
$PAD
Sh "25" C 1.524 1.524 0 0 0
Dr 1.016 0 0
At STD N 00E0FFFF
Ne 0 ""
Po 2.54 1.27
$EndPAD
$PAD
Sh "18" C 1.524 1.524 0 0 0
Dr 1.016 0 0
At STD N 00E0FFFF
Ne 0 ""
Po -7.62 -1.27
$EndPAD
$PAD
Sh "27" C 1.524 1.524 0 0 0
Dr 1.016 0 0
At STD N 00E0FFFF
Ne 0 ""
Po 5.08 1.27
$EndPAD
$PAD
Sh "20" C 1.524 1.524 0 0 0
Dr 1.016 0 0
At STD N 00E0FFFF
Ne 0 ""
Po -5.08 -1.27
$EndPAD
$PAD
Sh "29" C 1.524 1.524 0 0 0
Dr 1.016 0 0
At STD N 00E0FFFF
Ne 0 ""
Po 7.62 1.27
$EndPAD
$PAD
Sh "22" C 1.524 1.524 0 0 0
Dr 1.016 0 0
At STD N 00E0FFFF
Ne 0 ""
Po -2.54 -1.27
$EndPAD
$PAD
Sh "31" C 1.524 1.524 0 0 0
Dr 1.016 0 0
At STD N 00E0FFFF
Ne 0 ""
Po 10.16 1.27
$EndPAD
$PAD
Sh "24" C 1.524 1.524 0 0 0
Dr 1.016 0 0
At STD N 00E0FFFF
Ne 0 ""
Po 0 -1.27
$EndPAD
$PAD
Sh "26" C 1.524 1.524 0 0 0
Dr 1.016 0 0
At STD N 00E0FFFF
Ne 0 ""
Po 2.54 -1.27
$EndPAD
$PAD
Sh "33" C 1.524 1.524 0 0 0
Dr 1.016 0 0
At STD N 00E0FFFF
Ne 21 "Tin1_cold_1"
Po 12.7 1.27
$EndPAD
$PAD
Sh "28" C 1.524 1.524 0 0 0
Dr 1.016 0 0
At STD N 00E0FFFF
Ne 0 ""
Po 5.08 -1.27
$EndPAD
$PAD
Sh "32" C 1.524 1.524 0 0 0
Dr 1.016 0 0
At STD N 00E0FFFF
Ne 0 ""
Po 10.16 -1.27
$EndPAD
$PAD
Sh "34" C 1.524 1.524 0 0 0
Dr 1.016 0 0
At STD N 00E0FFFF
Ne 0 ""
Po 12.7 -1.27
$EndPAD
$PAD
Sh "36" C 1.524 1.524 0 0 0
Dr 1.016 0 0
At STD N 00E0FFFF
Ne 0 ""
Po 15.24 -1.27
$EndPAD
$PAD
Sh "38" C 1.524 1.524 0 0 0
Dr 1.016 0 0
At STD N 00E0FFFF
Ne 0 ""
Po 17.78 -1.27
$EndPAD
$PAD
Sh "35" C 1.524 1.524 0 0 0
Dr 1.016 0 0
At STD N 00E0FFFF
Ne 0 ""
Po 15.24 1.27
$EndPAD
$PAD
Sh "37" C 1.524 1.524 0 0 0
Dr 1.016 0 0
At STD N 00E0FFFF
Ne 0 ""
Po 17.78 1.27
$EndPAD
$PAD
Sh "3" C 1.524 1.524 0 0 0
Dr 1.016 0 0
At STD N 00E0FFFF
Ne 0 ""
Po -25.4 1.27
$EndPAD
$PAD
Sh "5" C 1.524 1.524 0 0 0
Dr 1.016 0 0
At STD N 00E0FFFF
Ne 0 ""
Po -22.86 1.27
$EndPAD
$PAD
Sh "7" C 1.524 1.524 0 0 0
Dr 1.016 0 0
At STD N 00E0FFFF
Ne 0 ""
Po -20.32 1.27
$EndPAD
$PAD
Sh "9" C 1.524 1.524 0 0 0
Dr 1.016 0 0
At STD N 00E0FFFF
Ne 0 ""
Po -17.78 1.27
$EndPAD
$PAD
Sh "39" C 1.524 1.524 0 0 0
Dr 1.016 0 0
At STD N 00E0FFFF
Ne 0 ""
Po 20.32 1.27
$EndPAD
$PAD
Sh "40" C 1.524 1.524 0 0 0
Dr 1.016 0 0
At STD N 00E0FFFF
Ne 0 ""
Po 20.32 -1.27
$EndPAD
$PAD
Sh "30" C 1.524 1.524 0 0 0
Dr 1.016 0 0
At STD N 00E0FFFF
Ne 0 ""
Po 7.62 -1.27
$EndPAD
$PAD
Sh "41" C 1.524 1.524 0 0 0
Dr 1.016 0 0
At STD N 00E0FFFF
Ne 0 ""
Po 22.86 1.27
$EndPAD
$PAD
Sh "42" C 1.524 1.524 0 0 0
Dr 1.016 0 0
At STD N 00E0FFFF
Ne 0 ""
Po 22.86 -1.27
$EndPAD
$PAD
Sh "43" C 1.524 1.524 0 0 0
Dr 1.016 0 0
At STD N 00E0FFFF
Ne 0 ""
Po 25.4 1.27
$EndPAD
$PAD
Sh "44" C 1.524 1.524 0 0 0
Dr 1.016 0 0
At STD N 00E0FFFF
Ne 0 ""
Po 25.4 -1.27
$EndPAD
$PAD
Sh "45" C 1.524 1.524 0 0 0
Dr 1.016 0 0
At STD N 00E0FFFF
Ne 0 ""
Po 27.94 1.27
$EndPAD
$PAD
Sh "46" C 1.524 1.524 0 0 0
Dr 1.016 0 0
At STD N 00E0FFFF
Ne 0 ""
Po 27.94 -1.27
$EndPAD
$EndMODULE PIN_ARRAY_23X2
$MODULE pin_array_13x2_a
Po 0 0 0 15 54D8ADB5 00000000 ~~
Li pin_array_13x2_a
Cd 2 x 13 pins connector
Kw CONN
Sc 0
AR 
Op 0 0 0
T0 -7.62 -3.81 1.016 1.016 0 0.2032 N V 21 N "PIN_ARRAY_13X2"
T1 7.62 -3.81 1.016 1.016 0 0.2032 N V 21 N "Val**"
DS -16.51 2.54 16.51 2.54 0.2032 21
DS 16.51 -2.54 -16.51 -2.54 0.2032 21
DS -16.51 -2.54 -16.51 2.54 0.2032 21
DS 16.51 2.54 16.51 -2.54 0.2032 21
$PAD
Sh "1" R 1.9 1.9 0 0 0
Dr 1.016 0 0
At STD N 00E0FFFF
Ne 0 ""
Po -15.24 1.27
$EndPAD
$PAD
Sh "2" C 1.9 1.9 0 0 0
Dr 1.016 0 0
At STD N 00E0FFFF
Ne 0 ""
Po -15.24 -1.27
$EndPAD
$PAD
Sh "3" C 1.9 1.9 0 0 0
Dr 1.016 0 0
At STD N 00E0FFFF
Ne 0 ""
Po -12.7 1.27
$EndPAD
$PAD
Sh "4" C 1.9 1.9 0 0 0
Dr 1.016 0 0
At STD N 00E0FFFF
Ne 0 ""
Po -12.7 -1.27
$EndPAD
$PAD
Sh "5" C 1.9 1.9 0 0 0
Dr 1.016 0 0
At STD N 00E0FFFF
Ne 0 ""
Po -10.16 1.27
$EndPAD
$PAD
Sh "6" C 1.9 1.9 0 0 0
Dr 1.016 0 0
At STD N 00E0FFFF
Ne 0 ""
Po -10.16 -1.27
$EndPAD
$PAD
Sh "7" C 1.9 1.9 0 0 0
Dr 1.016 0 0
At STD N 00E0FFFF
Ne 0 ""
Po -7.62 1.27
$EndPAD
$PAD
Sh "8" C 1.9 1.9 0 0 0
Dr 1.016 0 0
At STD N 00E0FFFF
Ne 0 ""
Po -7.62 -1.27
$EndPAD
$PAD
Sh "9" C 1.9 1.9 0 0 0
Dr 1.016 0 0
At STD N 00E0FFFF
Ne 0 ""
Po -5.08 1.27
$EndPAD
$PAD
Sh "10" C 1.9 1.9 0 0 0
Dr 1.016 0 0
At STD N 00E0FFFF
Ne 0 ""
Po -5.08 -1.27
$EndPAD
$PAD
Sh "11" C 1.9 1.9 0 0 0
Dr 1.016 0 0
At STD N 00E0FFFF
Ne 0 ""
Po -2.54 1.27
$EndPAD
$PAD
Sh "12" C 1.9 1.9 0 0 0
Dr 1.016 0 0
At STD N 00E0FFFF
Ne 0 ""
Po -2.54 -1.27
$EndPAD
$PAD
Sh "13" C 1.9 1.9 0 0 0
Dr 1.016 0 0
At STD N 00E0FFFF
Ne 0 ""
Po 0 1.27
$EndPAD
$PAD
Sh "14" C 1.9 1.9 0 0 0
Dr 1.016 0 0
At STD N 00E0FFFF
Ne 0 ""
Po 0 -1.27
$EndPAD
$PAD
Sh "15" C 1.9 1.9 0 0 0
Dr 1.016 0 0
At STD N 00E0FFFF
Ne 0 ""
Po 2.54 1.27
$EndPAD
$PAD
Sh "16" C 1.9 1.9 0 0 0
Dr 1.016 0 0
At STD N 00E0FFFF
Ne 0 ""
Po 2.54 -1.27
$EndPAD
$PAD
Sh "17" C 1.9 1.9 0 0 0
Dr 1.016 0 0
At STD N 00E0FFFF
Ne 0 ""
Po 5.08 1.27
$EndPAD
$PAD
Sh "18" C 1.9 1.9 0 0 0
Dr 1.016 0 0
At STD N 00E0FFFF
Ne 0 ""
Po 5.08 -1.27
$EndPAD
$PAD
Sh "19" C 1.9 1.9 0 0 0
Dr 1.016 0 0
At STD N 00E0FFFF
Ne 0 ""
Po 7.62 1.27
$EndPAD
$PAD
Sh "20" C 1.9 1.9 0 0 0
Dr 1.016 0 0
At STD N 00E0FFFF
Ne 0 ""
Po 7.62 -1.27
$EndPAD
$PAD
Sh "21" C 1.9 1.9 0 0 0
Dr 1.016 0 0
At STD N 00E0FFFF
Ne 0 ""
Po 10.16 1.27
$EndPAD
$PAD
Sh "22" C 1.9 1.9 0 0 0
Dr 1.016 0 0
At STD N 00E0FFFF
Ne 0 ""
Po 10.16 -1.27
$EndPAD
$PAD
Sh "23" C 1.9 1.9 0 0 0
Dr 1.016 0 0
At STD N 00E0FFFF
Ne 0 ""
Po 12.7 1.27
$EndPAD
$PAD
Sh "24" C 1.9 1.9 0 0 0
Dr 1.016 0 0
At STD N 00E0FFFF
Ne 0 ""
Po 12.7 -1.27
$EndPAD
$PAD
Sh "25" C 1.9 1.9 0 0 0
Dr 1.016 0 0
At STD N 00E0FFFF
Ne 0 ""
Po 15.24 1.27
$EndPAD
$PAD
Sh "26" C 1.9 1.9 0 0 0
Dr 1.016 0 0
At STD N 00E0FFFF
Ne 0 ""
Po 15.24 -1.27
$EndPAD
$SHAPE3D
Na "pin_array/pins_array_13x2.wrl"
Sc 1 1 1
Of 0 0 0
Ro 0 0 0
$EndSHAPE3D
$EndMODULE pin_array_13x2_a
$EndLIBRARY
