PCBNEW-LibModule-V1  śro, 12 mar 2014, 12:58:30
# encoding utf-8
$INDEX
PQFN2x2
$EndINDEX
$MODULE PQFN2x2
Po 0 0 0 15 53204BE2 00000000 ~~
Li PQFN2x2
Cd PQFN 2x2 Outline Package
Sc 00000000
AR PQFN2x2
Op 0 0 0
.LocalClearance 79
T0 -500 0 200 200 900 20 N V 21 N "Q"
T1 700 0 118 118 900 20 N V 21 N "PQFN2x2"
DS -290 425 -290 -425 20 21
DS -290 -425 530 -425 20 21
DS 530 -425 530 425 20 21
DS 500 425 530 425 20 21
DS -288 425 499 425 20 21
$PAD
Sh "D" R 140 120 0 0 0
Dr 0 0 0
At SMD N 00888000
Ne 0 ""
Po -140 345
$EndPAD
$PAD
Sh "D" R 140 120 0 0 0
Dr 0 0 0
At SMD N 00888000
Ne 0 ""
Po 120 345
$EndPAD
$PAD
Sh "G" R 140 120 0 0 0
Dr 0 0 0
At SMD N 00888000
Ne 0 ""
Po 380 345
$EndPAD
$PAD
Sh "S" R 140 120 0 0 0
Dr 0 0 0
At SMD N 00888000
Ne 0 ""
Po 380 -345
$EndPAD
$PAD
Sh "D" R 140 120 0 0 0
Dr 0 0 0
At SMD N 00888000
Ne 0 ""
Po 120 -345
$EndPAD
$PAD
Sh "D" R 140 120 0 0 0
Dr 0 0 0
At SMD N 00888000
Ne 0 ""
Po -140 -345
$EndPAD
$PAD
Sh "D" R 413 492 0 0 0
Dr 0 0 0
At SMD N 00888000
Ne 0 ""
Po -2 0
$EndPAD
$PAD
Sh "S" R 91 309 0 0 0
Dr 0 0 0
At SMD N 00888000
Ne 0 ""
Po 405 0
$EndPAD
$EndMODULE  PQFN2x2
$EndLIBRARY
