PCBNEW-LibModule-V1  śro, 20 sie 2014, 13:13:01
# encoding utf-8
Units mm
$INDEX
PVQFN-N20
$EndINDEX
$MODULE PVQFN-N20
Po 0 0 0 15 53F48276 00000000 ~~
Li PVQFN-N20
Sc 0
AR PVQFN-N20
Op 0 0 0
.LocalClearance 0.0508
T0 0 -2.99974 0.762 0.762 0 0.1905 N V 21 N "PVQFN-N20"
T1 0 3.0988 0.762 0.762 0 0.1905 N V 21 N "VAL**"
DS -2.286 2.413 -2.794 1.905 0.127 21
DS 2.79908 2.4003 -2.79908 2.4003 0.127 21
DS -2.79908 2.4003 -2.79908 -2.30124 0.127 21
DS -2.79908 -2.30124 2.79908 -2.30124 0.127 21
DS 2.79908 -2.30124 2.79908 2.4003 0.127 21
$PAD
Sh "5" R 0.29972 0.8509 0 0 0
Dr 0 0 0
At SMD N 00888000
Ne 0 ""
Po -0.24892 1.72466
$EndPAD
$PAD
Sh "6" R 0.29972 0.8509 0 0 0
Dr 0 0 0
At SMD N 00888000
Ne 0 ""
Po 0.24892 1.72466
$EndPAD
$PAD
Sh "7" R 0.29972 0.8509 0 0 0
Dr 0 0 0
At SMD N 00888000
Ne 0 ""
Po 0.7493 1.72466
$EndPAD
$PAD
Sh "8" R 0.29972 0.8509 0 0 0
Dr 0 0 0
At SMD N 00888000
Ne 0 ""
Po 1.24968 1.72466
$EndPAD
$PAD
Sh "9" R 0.29972 0.8509 0 0 0
Dr 0 0 0
At SMD N 00888000
Ne 0 ""
Po 1.75006 1.72466
$EndPAD
$PAD
Sh "10" R 0.8509 0.29972 0 0 0
Dr 0 0 0
At SMD N 00888000
Ne 0 ""
Po 2.22504 0.7493
$EndPAD
$PAD
Sh "11" R 0.8509 0.29972 0 0 0
Dr 0 0 0
At SMD N 00888000
Ne 0 ""
Po 2.22504 -0.7493
$EndPAD
$PAD
Sh "12" R 0.29972 0.8509 0 0 0
Dr 0 0 0
At SMD N 00888000
Ne 0 ""
Po 1.75006 -1.72466
$EndPAD
$PAD
Sh "13" R 0.29972 0.8509 0 0 0
Dr 0 0 0
At SMD N 00888000
Ne 0 ""
Po 1.24968 -1.72466
$EndPAD
$PAD
Sh "14" R 0.29972 0.8509 0 0 0
Dr 0 0 0
At SMD N 00888000
Ne 0 ""
Po 0.7493 -1.72466
$EndPAD
$PAD
Sh "15" R 0.29972 0.8509 0 0 0
Dr 0 0 0
At SMD N 00888000
Ne 0 ""
Po 0.24892 -1.72466
$EndPAD
$PAD
Sh "16" R 0.29972 0.8509 0 0 0
Dr 0 0 0
At SMD N 00888000
Ne 0 ""
Po -0.24892 -1.72466
$EndPAD
$PAD
Sh "17" R 0.29972 0.8509 0 0 0
Dr 0 0 0
At SMD N 00888000
Ne 0 ""
Po -0.7493 -1.72466
$EndPAD
$PAD
Sh "18" R 0.29972 0.8509 0 0 0
Dr 0 0 0
At SMD N 00888000
Ne 0 ""
Po -1.24968 -1.72466
$EndPAD
$PAD
Sh "19" R 0.29972 0.8509 0 0 0
Dr 0 0 0
At SMD N 00888000
Ne 0 ""
Po -1.75006 -1.72466
$EndPAD
$PAD
Sh "20" R 0.8509 0.29972 0 0 0
Dr 0 0 0
At SMD N 00888000
Ne 0 ""
Po -2.22504 -0.7493
$EndPAD
$PAD
Sh "1" R 0.8509 0.29972 0 0 0
Dr 0 0 0
At SMD N 00888000
Ne 0 ""
Po -2.22504 0.7493
$EndPAD
$PAD
Sh "2" R 0.29972 0.8509 0 0 0
Dr 0 0 0
At SMD N 00888000
Ne 0 ""
Po -1.75006 1.72466
$EndPAD
$PAD
Sh "3" R 0.29972 0.8509 0 0 0
Dr 0 0 0
At SMD N 00888000
Ne 0 ""
Po -1.24968 1.72466
$EndPAD
$PAD
Sh "4" R 0.29972 0.8509 0 0 0
Dr 0 0 0
At SMD N 00888000
Ne 0 ""
Po -0.7493 1.72466
$EndPAD
$PAD
Sh "21" R 0.40132 0.77978 0 0 0
Dr 0 0 0
At SMD N 00888000
Ne 0 ""
Po 1.72466 0
$EndPAD
$PAD
Sh "21" R 0.40132 0.77978 0 0 0
Dr 0 0 0
At SMD N 00888000
Ne 0 ""
Po -1.72466 0
$EndPAD
$PAD
Sh "21" R 0.72644 0.23114 0 0 0
Dr 0 0 0
At SMD N 00888000
Ne 0 ""
Po 2.28854 -0.27432
$EndPAD
$PAD
Sh "21" R 0.72644 0.23114 0 0 0
Dr 0 0 0
At SMD N 00888000
Ne 0 ""
Po 2.28854 0.27432
$EndPAD
$PAD
Sh "21" R 0.72644 0.23114 0 0 0
Dr 0 0 0
At SMD N 00888000
Ne 0 ""
Po -2.28854 -0.27432
$EndPAD
$PAD
Sh "21" R 0.72644 0.23114 0 0 0
Dr 0 0 0
At SMD N 00888000
Ne 0 ""
Po -2.28854 0.27432
$EndPAD
$PAD
Sh "21" R 1.016 1.02616 0 0 0
Dr 0 0 0
At SMD N 00888000
Ne 0 ""
Po -1.016 -0.51308
$EndPAD
$PAD
Sh "21" R 1.016 1.02616 0 0 0
Dr 0 0 0
At SMD N 00888000
Ne 0 ""
Po 0 -0.51308
$EndPAD
$PAD
Sh "21" R 1.016 1.02616 0 0 0
Dr 0 0 0
At SMD N 00888000
Ne 0 ""
Po 1.016 -0.51308
$EndPAD
$PAD
Sh "21" R 1.016 1.02616 0 0 0
Dr 0 0 0
At SMD N 00888000
Ne 0 ""
Po -1.016 0.51308
$EndPAD
$PAD
Sh "21" R 1.016 1.02616 0 0 0
Dr 0 0 0
At SMD N 00888000
Ne 0 ""
Po 0 0.51308
$EndPAD
$PAD
Sh "21" R 1.016 1.02616 0 0 0
Dr 0 0 0
At SMD N 00888000
Ne 0 ""
Po 1.016 0.51308
$EndPAD
$EndMODULE PVQFN-N20
$EndLIBRARY
