PCBNEW-LibModule-V1 14/03/2014-23:14:27
$INDEX
QFN36
$EndINDEX
$MODULE QFN36
Po 29000 24000 0 15 00200000 00000000 ~~
Li QFN36
Cd 
Sc 00000000
Op 0 0 0
T0 0 -100 350 350 2700 120 N V 21 "U"
T1 0 100 350 350 2700 120 N V 21 "QFN36"
DS -643 250 2218 250 120 21
DS 2218 250 2218 -2612 120 21
DS 2218 -2612 -643 -2612 120 21
DS -643 -2612 -643 250 120 21
$PAD
Sh "1" R 110 354 0 0 0
Dr 0 0 0
At SMD N 00888000
Ne 0 ""
Po 0 0
$EndPAD
$PAD
Sh "2" R 110 354 0 0 0
Dr 0 0 0
At SMD N 00888000
Ne 0 ""
Po 196 0
$EndPAD
$PAD
Sh "3" R 110 354 0 0 0
Dr 0 0 0
At SMD N 00888000
Ne 0 ""
Po 393 0
$EndPAD
$PAD
Sh "4" R 110 354 0 0 0
Dr 0 0 0
At SMD N 00888000
Ne 0 ""
Po 590 0
$EndPAD
$PAD
Sh "5" R 110 354 0 0 0
Dr 0 0 0
At SMD N 00888000
Ne 0 ""
Po 787 0
$EndPAD
$PAD
Sh "6" R 110 354 0 0 0
Dr 0 0 0
At SMD N 00888000
Ne 0 ""
Po 984 0
$EndPAD
$PAD
Sh "7" R 110 354 0 0 0
Dr 0 0 0
At SMD N 00888000
Ne 0 ""
Po 1181 0
$EndPAD
$PAD
Sh "8" R 110 354 0 0 0
Dr 0 0 0
At SMD N 00888000
Ne 0 ""
Po 1377 0
$EndPAD
$PAD
Sh "9" R 110 354 0 0 0
Dr 0 0 0
At SMD N 00888000
Ne 0 ""
Po 1574 0
$EndPAD
$PAD
Sh "10" R 110 354 0 0 2700
Dr 0 0 0
At SMD N 00888000
Ne 0 ""
Po 1968 -393
$EndPAD
$PAD
Sh "11" R 110 354 0 0 2700
Dr 0 0 0
At SMD N 00888000
Ne 0 ""
Po 1968 -590
$EndPAD
$PAD
Sh "12" R 110 354 0 0 2700
Dr 0 0 0
At SMD N 00888000
Ne 0 ""
Po 1968 -787
$EndPAD
$PAD
Sh "13" R 110 354 0 0 2700
Dr 0 0 0
At SMD N 00888000
Ne 0 ""
Po 1968 -984
$EndPAD
$PAD
Sh "14" R 110 354 0 0 2700
Dr 0 0 0
At SMD N 00888000
Ne 0 ""
Po 1968 -1181
$EndPAD
$PAD
Sh "15" R 110 354 0 0 2700
Dr 0 0 0
At SMD N 00888000
Ne 0 ""
Po 1968 -1377
$EndPAD
$PAD
Sh "16" R 110 354 0 0 2700
Dr 0 0 0
At SMD N 00888000
Ne 0 ""
Po 1968 -1574
$EndPAD
$PAD
Sh "17" R 110 354 0 0 2700
Dr 0 0 0
At SMD N 00888000
Ne 0 ""
Po 1968 -1771
$EndPAD
$PAD
Sh "18" R 110 354 0 0 2700
Dr 0 0 0
At SMD N 00888000
Ne 0 ""
Po 1968 -1968
$EndPAD
$PAD
Sh "19" R 110 354 0 0 1800
Dr 0 0 0
At SMD N 00888000
Ne 0 ""
Po 1574 -2362
$EndPAD
$PAD
Sh "20" R 110 354 0 0 1800
Dr 0 0 0
At SMD N 00888000
Ne 0 ""
Po 1377 -2362
$EndPAD
$PAD
Sh "21" R 110 354 0 0 1800
Dr 0 0 0
At SMD N 00888000
Ne 0 ""
Po 1181 -2362
$EndPAD
$PAD
Sh "22" R 110 354 0 0 1800
Dr 0 0 0
At SMD N 00888000
Ne 0 ""
Po 984 -2362
$EndPAD
$PAD
Sh "23" R 110 354 0 0 1800
Dr 0 0 0
At SMD N 00888000
Ne 0 ""
Po 787 -2362
$EndPAD
$PAD
Sh "24" R 110 354 0 0 1800
Dr 0 0 0
At SMD N 00888000
Ne 0 ""
Po 590 -2362
$EndPAD
$PAD
Sh "25" R 110 354 0 0 1800
Dr 0 0 0
At SMD N 00888000
Ne 0 ""
Po 393 -2362
$EndPAD
$PAD
Sh "26" R 110 354 0 0 1800
Dr 0 0 0
At SMD N 00888000
Ne 0 ""
Po 196 -2362
$EndPAD
$PAD
Sh "27" R 110 354 0 0 1800
Dr 0 0 0
At SMD N 00888000
Ne 0 ""
Po 0 -2362
$EndPAD
$PAD
Sh "28" R 110 354 0 0 900
Dr 0 0 0
At SMD N 00888000
Ne 0 ""
Po -393 -1968
$EndPAD
$PAD
Sh "29" R 110 354 0 0 900
Dr 0 0 0
At SMD N 00888000
Ne 0 ""
Po -393 -1771
$EndPAD
$PAD
Sh "30" R 110 354 0 0 900
Dr 0 0 0
At SMD N 00888000
Ne 0 ""
Po -393 -1574
$EndPAD
$PAD
Sh "31" R 110 354 0 0 900
Dr 0 0 0
At SMD N 00888000
Ne 0 ""
Po -393 -1377
$EndPAD
$PAD
Sh "32" R 110 354 0 0 900
Dr 0 0 0
At SMD N 00888000
Ne 0 ""
Po -393 -1181
$EndPAD
$PAD
Sh "33" R 110 354 0 0 900
Dr 0 0 0
At SMD N 00888000
Ne 0 ""
Po -393 -984
$EndPAD
$PAD
Sh "34" R 110 354 0 0 900
Dr 0 0 0
At SMD N 00888000
Ne 0 ""
Po -393 -787
$EndPAD
$PAD
Sh "35" R 110 354 0 0 900
Dr 0 0 0
At SMD N 00888000
Ne 0 ""
Po -393 -590
$EndPAD
$PAD
Sh "36" R 110 354 0 0 900
Dr 0 0 0
At SMD N 00888000
Ne 0 ""
Po -393 -393
$EndPAD
$EndMODULE QFN36
$EndLIBRARY
