PCBNEW-LibModule-V1  wto, 25 lis 2014, 14:37:55
# encoding utf-8
Units mm
$INDEX
RSENSE_OHMITE
RSENSE_SMV
RSENSE_VISHAY
$EndINDEX
$MODULE RSENSE_OHMITE
Po 0 0 0 15 54748560 00000000 ~~
Li RSENSE_OHMITE
Sc 0
AR 
Op 0 0 0
T0 -4 1.4 1 1 900 0.15 N V 21 N "OHMITE_RSENSE"
T1 4 0 1 1 900 0.15 N V 21 N "VAL**"
DS 3.1 5.2 -3.1 5.2 0.15 21
DS -3.1 4.6 3.1 4.6 0.15 21
DS -3.1 -4.6 3.1 -4.6 0.15 21
DS 3.1 -4.6 3.1 7.3 0.15 21
DS 3.1 7.3 -3.1 7.3 0.15 21
DS -3.1 7.3 -3.1 -4.6 0.15 21
$PAD
Sh "I1" R 1.2 8.7 0 0 0
Dr 0 0 0
At SMD N 00888000
Ne 0 ""
Po -2.2 0
$EndPAD
$PAD
Sh "I2" R 1.2 8.7 0 0 0
Dr 0 0 0
At SMD N 00888000
Ne 0 ""
Po 2.2 0
$EndPAD
$PAD
Sh "u1" R 1.2 1.6 0 0 0
Dr 0 0 0
At SMD N 00888000
Ne 0 ""
Po -2.2 6.25
$EndPAD
$PAD
Sh "u2" R 1.2 1.6 0 0 0
Dr 0 0 0
At SMD N 00888000
Ne 0 ""
Po 2.2 6.25
$EndPAD
$EndMODULE RSENSE_OHMITE
$MODULE RSENSE_SMV
Po 0 0 0 15 54745E0A 00000000 ~~
Li RSENSE_SMV
Sc 0
AR 
Op 0 0 0
T0 -5.2 4.2 1 1 0 0.15 N V 21 N "SMV_RSENSE"
T1 2.8 -4.2 1 1 0 0.15 N V 21 N "VAL**"
DS -6.7 -3.2 6.7 -3.2 0.15 21
DS 6.7 -3.2 6.7 3.2 0.15 21
DS 6.7 3.2 -6.7 3.2 0.15 21
DS -6.7 3.2 -6.7 -3.2 0.15 21
$PAD
Sh "I1" R 2.8 5.8 0 0 0
Dr 0 0 0
At SMD N 00888000
Ne 0 ""
Po -5 0
$EndPAD
$PAD
Sh "I2" R 2.8 5.8 0 0 0
Dr 0 0 0
At SMD N 00888000
Ne 0 ""
Po 5 0
$EndPAD
$PAD
Sh "u2" R 1.8 1.5 0 0 0
Dr 0 0 0
At SMD N 00888000
Ne 0 ""
Po 0.9 4.2
$EndPAD
$PAD
Sh "u1" R 1.8 1.5 0 0 0
Dr 0 0 0
At SMD N 00888000
Ne 0 ""
Po -0.9 -4.2
$EndPAD
$EndMODULE RSENSE_SMV
$MODULE RSENSE_VISHAY
Po 0 0 0 15 54745C60 00000000 ~~
Li RSENSE_VISHAY
Sc 0
AR 
Op 0 0 0
T0 -4.064 0 1 1 900 0.15 N V 21 N "VISHAY_RSENSE"
T1 0 5.334 1 1 0 0.15 N V 21 N "VAL**"
DS 3.429 -3.937 3.429 3.937 0.15 21
DS 3.048 -3.937 3.048 3.937 0.15 21
DS -3.048 -3.937 4.826 -3.937 0.15 21
DS 4.826 -3.937 4.826 3.937 0.15 21
DS 4.826 3.937 -3.048 3.937 0.15 21
DS -3.048 3.937 -3.048 -3.937 0.15 21
$PAD
Sh "I1" R 5.588 2.4384 0 0 0
Dr 0 0 0
At SMD N 00888000
Ne 0 ""
Po 0 2.4638
$EndPAD
$PAD
Sh "I2" R 5.588 2.4384 0 0 0
Dr 0 0 0
At SMD N 00888000
Ne 0 ""
Po 0 -2.4638
$EndPAD
$PAD
Sh "u1" R 0.889 2.4384 0 0 0
Dr 0 0 0
At SMD N 00888000
Ne 0 ""
Po 4.1275 2.4638
$EndPAD
$PAD
Sh "u2" R 0.889 2.4384 0 0 0
Dr 0 0 0
At SMD N 00888000
Ne 0 ""
Po 4.1275 -2.4638
$EndPAD
$EndMODULE RSENSE_VISHAY
$EndLIBRARY
