PCBNEW-LibModule-V1  śro, 20 sie 2014, 13:13:45
# encoding utf-8
Units mm
$INDEX
TDFN-10+1
$EndINDEX
$MODULE TDFN-10+1
Po 0 0 0 15 53F481B6 00000000 ~~
Li TDFN-10+1
Sc 0
AR 
Op 0 0 0
.LocalClearance 0.0508
T0 -1.99898 0 0.508 0.508 900 0.127 N V 21 N "TDFN-10+1"
T1 1.99898 0 0.508 0.508 900 0.127 N V 21 N "VAL**"
DC -1.6256 2.1336 -1.524 2.032 0.127 21
DS 1.50114 -1.99898 1.50114 1.99898 0.09906 21
DS 1.50114 1.99898 -1.50114 1.99898 0.09906 21
DS -1.50114 1.99898 -1.50114 -1.99898 0.09906 21
DS -1.50114 -1.99898 1.50114 -1.99898 0.09906 21
$PAD
Sh "1" R 0.29972 0.70104 0 0 0
Dr 0 0 0
At SMD N 00888000
Ne 0 ""
Po -1.00076 1.50114
$EndPAD
$PAD
Sh "2" R 0.29972 0.70104 0 0 0
Dr 0 0 0
At SMD N 00888000
Ne 0 ""
Po -0.50038 1.50114
$EndPAD
$PAD
Sh "3" R 0.29972 0.70104 0 0 0
Dr 0 0 0
At SMD N 00888000
Ne 0 ""
Po 0 1.50114
$EndPAD
$PAD
Sh "4" R 0.29972 0.70104 0 0 0
Dr 0 0 0
At SMD N 00888000
Ne 0 ""
Po 0.50038 1.50114
$EndPAD
$PAD
Sh "5" R 0.29972 0.70104 0 0 0
Dr 0 0 0
At SMD N 00888000
Ne 0 ""
Po 1.00076 1.50114
$EndPAD
$PAD
Sh "6" R 0.29972 0.70104 0 0 0
Dr 0 0 0
At SMD N 00888000
Ne 0 ""
Po 1.00076 -1.45034
$EndPAD
$PAD
Sh "7" R 0.29972 0.70104 0 0 0
Dr 0 0 0
At SMD N 00888000
Ne 0 ""
Po 0.50038 -1.45034
$EndPAD
$PAD
Sh "8" R 0.29972 0.70104 0 0 0
Dr 0 0 0
At SMD N 00888000
Ne 0 ""
Po 0 -1.45034
$EndPAD
$PAD
Sh "9" R 0.29972 0.70104 0 0 0
Dr 0 0 0
At SMD N 00888000
Ne 0 ""
Po -0.50038 -1.45034
$EndPAD
$PAD
Sh "10" R 0.29972 0.70104 0 0 0
Dr 0 0 0
At SMD N 00888000
Ne 0 ""
Po -1.00076 -1.45034
$EndPAD
$PAD
Sh "11" R 2.3495 1.57988 0 0 0
Dr 0 0 0
At SMD N 00888000
Ne 0 ""
Po 0 0.0254
$EndPAD
$EndMODULE TDFN-10+1
$EndLIBRARY
