PCBNEW-LibModule-V1  pią, 6 mar 2015, 22:11:35
# encoding utf-8
Units mm
$INDEX
UHF_38PQFN
$EndINDEX
$MODULE UHF_38PQFN
Po 0 0 0 15 54FA1801 00000000 ~~
Li UHF_38PQFN
Sc 0
AR /54647C6A
Op 0 0 0
.SolderMask 0.1
.LocalClearance 0.12
T0 -1.5 3.25 0.35 0.35 2 0.12 N V 21 N "U101"
T1 1.75 3.25 0.35 0.35 2 0.12 N V 21 N "LT8705XUHF"
DS -3.5 -2.5 3.5 -2.5 0.08 21
DS 3.5 -2.5 3.5 2.5 0.08 21
DS 3.5 2.5 -3.5 2.5 0.08 21
DS -3.5 2.5 -3.5 -2.5 0.08 21
$PAD
Sh "1" R 0.25 0.7 0 0 0
Dr 0 0 0
At SMD N 00888000
Ne 14 "/Kontrola/~SHDN"
Po -2.75 2.4
$EndPAD
$PAD
Sh "2" R 0.25 0.7 0 0 0
Dr 0 0 0
At SMD N 00888000
Ne 27 "N-0000020"
Po -2.25 2.4
$EndPAD
$PAD
Sh "3" R 0.25 0.7 0 0 0
Dr 0 0 0
At SMD N 00888000
Ne 26 "N-0000019"
Po -1.75 2.4
$EndPAD
$PAD
Sh "4" R 0.25 0.7 0 0 0
Dr 0 0 0
At SMD N 00888000
Ne 1 "+3.3V"
Po -1.25 2.4
$EndPAD
$PAD
Sh "5" R 0.25 0.7 0 0 0
Dr 0 0 0
At SMD N 00888000
Ne 6 "/FBIN"
Po -0.75 2.4
$EndPAD
$PAD
Sh "6" R 0.25 0.7 0 0 0
Dr 0 0 0
At SMD N 00888000
Ne 7 "/FBOUT"
Po -0.25 2.4
$EndPAD
$PAD
Sh "7" R 0.25 0.7 0 0 0
Dr 0 0 0
At SMD N 00888000
Ne 30 "N-0000025"
Po 0.25 2.4
$EndPAD
$PAD
Sh "8" R 0.25 0.7 0 0 0
Dr 0 0 0
At SMD N 00888000
Ne 35 "N-000008"
Po 0.75 2.4
$EndPAD
$PAD
Sh "9" R 0.25 0.7 0 0 0
Dr 0 0 0
At SMD N 00888000
Ne 34 "N-000007"
Po 1.25 2.4
$EndPAD
$PAD
Sh "10" R 0.25 0.7 0 0 0
Dr 0 0 0
At SMD N 00888000
Ne 8 "/Kontrola/CLKOUT"
Po 1.75 2.4
$EndPAD
$PAD
Sh "11" R 0.25 0.7 0 0 0
Dr 0 0 0
At SMD N 00888000
Ne 9 "/Kontrola/SYNC"
Po 2.25 2.4
$EndPAD
$PAD
Sh "12" R 0.25 0.7 0 0 0
Dr 0 0 0
At SMD N 00888000
Ne 24 "N-0000010"
Po 2.75 2.4
$EndPAD
$PAD
Sh "13" R 0.25 0.7 0 0 2700
Dr 0 0 0
At SMD N 00888000
Ne 23 "GND"
Po 3.4 1.5
$EndPAD
$PAD
Sh "14" R 0.25 0.7 0 0 2700
Dr 0 0 0
At SMD N 00888000
Ne 16 "/M2_G"
Po 3.4 1
$EndPAD
$PAD
Sh "15" R 0.25 0.7 0 0 2700
Dr 0 0 0
At SMD N 00888000
Ne 33 "N-000004"
Po 3.4 0.5
$EndPAD
$PAD
Sh "16" R 0.25 0.7 0 0 2700
Dr 0 0 0
At SMD N 00888000
Ne 17 "/M3_G"
Po 3.4 0
$EndPAD
$PAD
Sh "17" R 0.25 0.7 0 0 2700
Dr 0 0 0
At SMD N 00888000
Ne 3 "/BCK2"
Po 3.4 -0.5
$EndPAD
$PAD
Sh "18" R 0.25 0.7 0 0 2700
Dr 0 0 0
At SMD N 00888000
Ne 18 "/M4_G"
Po 3.4 -1
$EndPAD
$PAD
Sh "19" R 0.25 0.7 0 0 2700
Dr 0 0 0
At SMD N 00888000
Ne 21 "/PWR_D"
Po 3.4 -1.5
$EndPAD
$PAD
Sh "20" R 0.25 0.7 0 0 1800
Dr 0 0 0
At SMD N 00888000
Ne 0 ""
Po 2.75 -2.4
$EndPAD
$PAD
Sh "21" R 0.25 0.7 0 0 1800
Dr 0 0 0
At SMD N 00888000
Ne 20 "/PWR_C"
Po 2.25 -2.4
$EndPAD
$PAD
Sh "22" R 0.25 0.7 0 0 1800
Dr 0 0 0
At SMD N 00888000
Ne 15 "/M1_G"
Po 1.75 -2.4
$EndPAD
$PAD
Sh "23" R 0.25 0.7 0 0 1800
Dr 0 0 0
At SMD N 00888000
Ne 2 "/BCK1"
Po 1.25 -2.4
$EndPAD
$PAD
Sh "24" R 0.25 0.7 0 0 1800
Dr 0 0 0
At SMD N 00888000
Ne 0 ""
Po 0.75 -2.4
$EndPAD
$PAD
Sh "25" R 0.25 0.7 0 0 1800
Dr 0 0 0
At SMD N 00888000
Ne 10 "/Kontrola/S_FBIN"
Po 0.25 -2.4
$EndPAD
$PAD
Sh "26" R 0.25 0.7 0 0 1800
Dr 0 0 0
At SMD N 00888000
Ne 12 "/Kontrola/S_IIN"
Po -0.25 -2.4
$EndPAD
$PAD
Sh "27" R 0.25 0.7 0 0 1800
Dr 0 0 0
At SMD N 00888000
Ne 13 "/Kontrola/S_IOUT"
Po -0.75 -2.4
$EndPAD
$PAD
Sh "28" R 0.25 0.7 0 0 1800
Dr 0 0 0
At SMD N 00888000
Ne 11 "/Kontrola/S_FBOUT"
Po -1.25 -2.4
$EndPAD
$PAD
Sh "29" R 0.25 0.7 0 0 1800
Dr 0 0 0
At SMD N 00888000
Ne 22 "/Vout"
Po -1.75 -2.4
$EndPAD
$PAD
Sh "30" R 0.25 0.7 0 0 1800
Dr 0 0 0
At SMD N 00888000
Ne 28 "N-0000022"
Po -2.25 -2.4
$EndPAD
$PAD
Sh "31" R 0.25 0.7 0 0 1800
Dr 0 0 0
At SMD N 00888000
Ne 5 "/CSPOUT"
Po -2.75 -2.4
$EndPAD
$PAD
Sh "32" R 0.25 0.7 0 0 900
Dr 0 0 0
At SMD N 00888000
Ne 4 "/CSNIN"
Po -3.4 -1.5
$EndPAD
$PAD
Sh "33" R 0.25 0.7 0 0 900
Dr 0 0 0
At SMD N 00888000
Ne 29 "N-0000024"
Po -3.4 -1
$EndPAD
$PAD
Sh "34" R 0.25 0.7 0 0 900
Dr 0 0 0
At SMD N 00888000
Ne 36 "Vin"
Po -3.4 -0.5
$EndPAD
$PAD
Sh "35" R 0.25 0.7 0 0 900
Dr 0 0 0
At SMD N 00888000
Ne 31 "N-0000029"
Po -3.4 0
$EndPAD
$PAD
Sh "36" R 0.25 0.7 0 0 900
Dr 0 0 0
At SMD N 00888000
Ne 25 "N-0000015"
Po -3.4 0.5
$EndPAD
$PAD
Sh "37" R 0.25 0.7 0 0 900
Dr 0 0 0
At SMD N 00888000
Ne 19 "/MODE"
Po -3.4 1
$EndPAD
$PAD
Sh "38" R 0.25 0.7 0 0 900
Dr 0 0 0
At SMD N 00888000
Ne 32 "N-0000036"
Po -3.4 1.5
$EndPAD
$PAD
Sh "39" R 5.15 3.15 0 0 0
Dr 0 0 0
At SMD N 00888000
Ne 23 "GND"
Po 0 0
$EndPAD
$EndMODULE UHF_38PQFN
$EndLIBRARY
